{"code":200,"message":"OK","data":[{"id":2378,"title":"\u786b\u5316\u6c22\uff08H\u2082S\uff09","category":23,"imgUrl":"https:\/\/imgcdn.nobook.com\/chem\/20210917\/201907265d3a69c601281.jpg","contents":"organic__H\u2082S","keywords":"[\"liuhuaqingHS\",\"lhqHS\",\"fenzi\",\"fz\",\"\u786b\u5316\u6c22\uff08H\u2082S\uff09\",\"\u5206\u5b50\",\"H2S\",\"\",null]","vip":0,"actionType":300,"chenmEquation":null,"sort":2378,"knowledge_points_sort":91,"url":"","dataVersion":0,"subjectId":2,"gradePhase":0,"operate":{"id":1119,"experiment_id":2378,"hits_count":130,"play_count":0,"share_count":3,"likes_count":0,"created_at":1656998382,"updated_at":1667996637,"auto_update_at":"2022-11-09 20:23:57"},"tag":[],"operatelog":[],"relation":{"id":10694,"experimentId":2378,"gradePhase":2,"subjectId":2,"versionId":1,"textbookId":7,"chapterId":43,"sectionId":170,"rank":150,"auto_update_at":"2022-11-07 15:47:18"}},{"id":2368,"title":"\u6c22\u6c14\uff08H\u2082\uff09","category":23,"imgUrl":"https:\/\/imgcdn.nobook.com\/chem\/20210917\/201907265d3a64c5967c8.jpg","contents":"organic__H\u2082","keywords":"[\"qingqiH\",\"qqH\",\"fenzi\",\"fz\",\"\u6c22\u6c14\uff08H\u2082\uff09\",\"\u5206\u5b50\",\"H2\",\"\",null]","vip":0,"actionType":300,"chenmEquation":null,"sort":2368,"knowledge_points_sort":84,"url":"","dataVersion":0,"subjectId":2,"gradePhase":0,"operate":{"id":1079,"experiment_id":2368,"hits_count":152,"play_count":0,"share_count":3,"likes_count":0,"created_at":1656908907,"updated_at":1667996717,"auto_update_at":"2022-11-09 20:25:17"},"tag":[],"operatelog":[],"relation":{"id":10699,"experimentId":2368,"gradePhase":2,"subjectId":2,"versionId":1,"textbookId":7,"chapterId":43,"sectionId":170,"rank":151,"auto_update_at":"2022-11-07 15:47:18"}},{"id":2367,"title":"\u4e59\u70ef\uff08C\u2082H\u2084\uff09","category":23,"imgUrl":"https:\/\/imgcdn.nobook.com\/chem\/20210917\/201907265d3a644a1cb0c.jpg","contents":"organic__C\u2082H\u2084","keywords":"[\"yixiCH\",\"yxCH\",\"fenzi\",\"fz\",\"\u4e59\u70ef\uff08C\u2082H\u2084\uff09\",\"\u5206\u5b50\",\"C2H4\",\"\",null]","vip":0,"actionType":300,"chenmEquation":null,"sort":2367,"knowledge_points_sort":83,"url":"","dataVersion":0,"subjectId":2,"gradePhase":0,"operate":{"id":586,"experiment_id":2367,"hits_count":1202,"play_count":0,"share_count":23,"likes_count":0,"created_at":1656071857,"updated_at":1668008766,"auto_update_at":"2022-11-09 23:46:06"},"tag":[],"operatelog":[],"relation":{"id":10704,"experimentId":2367,"gradePhase":2,"subjectId":2,"versionId":1,"textbookId":7,"chapterId":43,"sectionId":170,"rank":152,"auto_update_at":"2022-11-07 15:47:18"}},{"id":1340,"title":"\u9152\u7cbe\u706f\u7684\u4f7f\u7528\u65b9\u6cd5","category":21,"imgUrl":"https:\/\/imgcdn.nobook.com\/chem\/20210917\/201810115bbebbd55c5d3.png","contents":"5bbeb820e9354754352fcf63","keywords":"[\"jiujingdengdeshiyongfangfa\",\"jjddsyff\",\"\",\"\u9152\u7cbe\u706f\u7684\u4f7f\u7528\u65b9\u6cd5\"]","vip":0,"actionType":400,"chenmEquation":null,"sort":1340,"knowledge_points_sort":11,"url":null,"dataVersion":0,"subjectId":2,"gradePhase":2,"operate":{"id":6,"experiment_id":1340,"hits_count":347,"play_count":0,"share_count":11,"likes_count":0,"created_at":1654848821,"updated_at":1667654705,"auto_update_at":"2022-11-05 21:25:05"},"tag":[],"operatelog":[],"relation":{"id":4415,"experimentId":1340,"gradePhase":2,"subjectId":2,"versionId":1,"textbookId":7,"chapterId":41,"sectionId":165,"rank":153,"auto_update_at":"2022-11-07 15:47:18"}},{"id":1330,"title":"\u7c89\u672b\u72b6\u836f\u54c1\u7684\u53d6\u7528","category":21,"imgUrl":"https:\/\/imgcdn.nobook.com\/chem\/20210917\/201809305bb06bcf3b6d6.png","contents":"5bb067e4bea7fd971e26d2db","keywords":"[\"fenmozhuangyaopindequyong\",\"fmzypdqy\",\"\",\"\u7c89\u672b\u72b6\u836f\u54c1\u7684\u53d6\u7528\"]","vip":0,"actionType":400,"chenmEquation":null,"sort":1330,"knowledge_points_sort":3,"url":null,"dataVersion":0,"subjectId":2,"gradePhase":2,"operate":{"id":106,"experiment_id":1330,"hits_count":235,"play_count":0,"share_count":7,"likes_count":1,"created_at":1655453077,"updated_at":1667700911,"auto_update_at":"2022-11-06 10:15:11"},"tag":[],"operatelog":[],"relation":{"id":4390,"experimentId":1330,"gradePhase":2,"subjectId":2,"versionId":1,"textbookId":7,"chapterId":41,"sectionId":165,"rank":154,"auto_update_at":"2022-11-07 15:47:18"}},{"id":1331,"title":"\u5757\u72b6\u56fa\u4f53\u836f\u54c1\u7684\u53d6\u7528","category":21,"imgUrl":"https:\/\/imgcdn.nobook.com\/chem\/20210917\/201809305bb06be3d66e0.png","contents":"5bb06a9fbea7fd971e26d2dc","keywords":"[\"kuaizhuanggutiyaopindequyong\",\"kzgtypdqy\",\"\",\"\u5757\u72b6\u56fa\u4f53\u836f\u54c1\u7684\u53d6\u7528\"]","vip":0,"actionType":400,"chenmEquation":null,"sort":1331,"knowledge_points_sort":4,"url":null,"dataVersion":0,"subjectId":2,"gradePhase":2,"operate":{"id":116,"experiment_id":1331,"hits_count":179,"play_count":0,"share_count":11,"likes_count":1,"created_at":1655457839,"updated_at":1668001282,"auto_update_at":"2022-11-09 21:41:22"},"tag":[],"operatelog":[],"relation":{"id":4392,"experimentId":1331,"gradePhase":2,"subjectId":2,"versionId":1,"textbookId":7,"chapterId":41,"sectionId":165,"rank":155,"auto_update_at":"2022-11-07 15:47:18"}},{"id":1333,"title":"\u5c11\u91cf\u6db2\u4f53\u7684\u53d6\u7528","category":21,"imgUrl":"https:\/\/imgcdn.nobook.com\/chem\/20210917\/201809305bb07374a56a5.png","contents":"5bb071adbea7fd971e26d2df","keywords":"[\"shaoliangyetidequyong\",\"slytdqy\",\"\",\"\u5c11\u91cf\u6db2\u4f53\u7684\u53d6\u7528\"]","vip":0,"actionType":400,"chenmEquation":null,"sort":1333,"knowledge_points_sort":5,"url":null,"dataVersion":0,"subjectId":2,"gradePhase":2,"operate":{"id":121,"experiment_id":1333,"hits_count":135,"play_count":0,"share_count":3,"likes_count":0,"created_at":1655457890,"updated_at":1667914518,"auto_update_at":"2022-11-08 21:35:18"},"tag":[],"operatelog":[],"relation":{"id":4401,"experimentId":1333,"gradePhase":2,"subjectId":2,"versionId":1,"textbookId":7,"chapterId":41,"sectionId":165,"rank":156,"auto_update_at":"2022-11-07 15:47:18"}},{"id":1334,"title":"\u95fb\u6c14\u4f53\u7684\u6b63\u786e\u64cd\u4f5c","category":21,"imgUrl":"https:\/\/imgcdn.nobook.com\/chem\/20210917\/201809305bb073932e6c9.png","contents":"5bb071ccbea7fd971e26d2e0","keywords":"[\"wenqitidezhengquecaozuo\",\"wqtdzqcz\",\"\",\"\u95fb\u6c14\u4f53\u7684\u6b63\u786e\u64cd\u4f5c\"]","vip":0,"actionType":400,"chenmEquation":null,"sort":1334,"knowledge_points_sort":6,"url":null,"dataVersion":0,"subjectId":2,"gradePhase":2,"operate":{"id":130,"experiment_id":1334,"hits_count":105,"play_count":0,"share_count":2,"likes_count":0,"created_at":1655458041,"updated_at":1667443036,"auto_update_at":"2022-11-03 10:37:16"},"tag":[],"operatelog":[],"relation":{"id":4402,"experimentId":1334,"gradePhase":2,"subjectId":2,"versionId":1,"textbookId":7,"chapterId":41,"sectionId":165,"rank":157,"auto_update_at":"2022-11-07 15:47:18"}},{"id":1335,"title":"\u6d17\u6da4\u4eea\u5668","category":21,"imgUrl":"https:\/\/imgcdn.nobook.com\/chem\/20210917\/201809305bb073a5ecfbc.png","contents":"5bb071e6bea7fd971e26d2e1","keywords":"[\"xidiyiqi\",\"xdyq\",\"\",\"\u6d17\u6da4\u4eea\u5668\"]","vip":0,"actionType":400,"chenmEquation":null,"sort":1335,"knowledge_points_sort":7,"url":null,"dataVersion":0,"subjectId":2,"gradePhase":2,"operate":{"id":120,"experiment_id":1335,"hits_count":122,"play_count":0,"share_count":2,"likes_count":0,"created_at":1655457883,"updated_at":1667461399,"auto_update_at":"2022-11-03 15:43:19"},"tag":[],"operatelog":[],"relation":{"id":4403,"experimentId":1335,"gradePhase":2,"subjectId":2,"versionId":1,"textbookId":7,"chapterId":41,"sectionId":165,"rank":158,"auto_update_at":"2022-11-07 15:47:18"}},{"id":1336,"title":"\u6db2\u4f53\u7684\u503e\u5012","category":21,"imgUrl":"https:\/\/imgcdn.nobook.com\/chem\/20210917\/201809305bb073c99090e.png","contents":"5bb07202bea7fd971e26d2e2","keywords":"[\"yetideqingdao\",\"ytdqd\",\"\",\"\u6db2\u4f53\u7684\u503e\u5012\"]","vip":0,"actionType":400,"chenmEquation":null,"sort":1336,"knowledge_points_sort":8,"url":null,"dataVersion":0,"subjectId":2,"gradePhase":2,"operate":{"id":119,"experiment_id":1336,"hits_count":138,"play_count":0,"share_count":2,"likes_count":0,"created_at":1655457874,"updated_at":1667697521,"auto_update_at":"2022-11-06 09:18:42"},"tag":[],"operatelog":[],"relation":{"id":4404,"experimentId":1336,"gradePhase":2,"subjectId":2,"versionId":1,"textbookId":7,"chapterId":41,"sectionId":165,"rank":159,"auto_update_at":"2022-11-07 15:47:18"}},{"id":1337,"title":"\u6db2\u4f53\u836f\u54c1\u7684\u52a0\u70ed\u65b9\u6cd5","category":21,"imgUrl":"https:\/\/imgcdn.nobook.com\/chem\/20210917\/201809305bb073dce0ccf.png","contents":"5bb0721abea7fd971e26d2e3","keywords":"[\"yetiyaopindejiarefangfa\",\"ytypdjrff\",\"\",\"\u6db2\u4f53\u836f\u54c1\u7684\u52a0\u70ed\u65b9\u6cd5\"]","vip":0,"actionType":400,"chenmEquation":null,"sort":1337,"knowledge_points_sort":9,"url":null,"dataVersion":0,"subjectId":2,"gradePhase":2,"operate":{"id":883,"experiment_id":1337,"hits_count":150,"play_count":0,"share_count":1,"likes_count":1,"created_at":1656561665,"updated_at":1667988593,"auto_update_at":"2022-11-09 18:09:53"},"tag":[],"operatelog":[],"relation":{"id":4405,"experimentId":1337,"gradePhase":2,"subjectId":2,"versionId":1,"textbookId":7,"chapterId":41,"sectionId":165,"rank":160,"auto_update_at":"2022-11-07 15:47:18"}},{"id":1338,"title":"\u4e00\u5b9a\u91cf\u6db2\u4f53\u7684\u53d6\u7528","category":21,"imgUrl":"https:\/\/imgcdn.nobook.com\/chem\/20210917\/201809305bb073f4cbd8f.png","contents":"5bb07234bea7fd971e26d2e4","keywords":"[\"yidingliangyetidequyong\",\"ydlytdqy\",\"\",\"\u4e00\u5b9a\u91cf\u6db2\u4f53\u7684\u53d6\u7528\"]","vip":0,"actionType":400,"chenmEquation":null,"sort":1338,"knowledge_points_sort":10,"url":null,"dataVersion":0,"subjectId":2,"gradePhase":2,"operate":{"id":117,"experiment_id":1338,"hits_count":95,"play_count":0,"share_count":1,"likes_count":0,"created_at":1655457858,"updated_at":1667697525,"auto_update_at":"2022-11-06 09:18:45"},"tag":[],"operatelog":[],"relation":{"id":4406,"experimentId":1338,"gradePhase":2,"subjectId":2,"versionId":1,"textbookId":7,"chapterId":41,"sectionId":165,"rank":161,"auto_update_at":"2022-11-07 15:47:18"}},{"id":2792,"title":"\u8bfe\u98981 \u7269\u8d28\u7684\u53d8\u5316\u548c\u6027\u8d28","category":9,"imgUrl":"https:\/\/imgcdn.nobook.com\/img\/20220726\/2022072662dfcd5305b57.png","contents":13,"keywords":"[\"keti1\",\"kt1\",\"keti1-wuzhidebianhuahexingzhi\",\"kt1-wzdbhhxz\",\"\",\"\u8bfe\u98981\",\"aa\",\"\u8bfe\u98981 \u7269\u8d28\u7684\u53d8\u5316\u548c\u6027\u8d28\"]","vip":0,"actionType":200,"chenmEquation":null,"sort":2792,"knowledge_points_sort":2792,"url":null,"dataVersion":30000,"subjectId":2,"gradePhase":2,"operate":{"id":4,"experiment_id":2792,"hits_count":2672,"play_count":0,"share_count":0,"likes_count":0,"created_at":1654772424,"updated_at":1667993418,"auto_update_at":"2022-11-09 19:30:18"},"tag":[{"id":1,"name":"new","colour":"#C42C2C"}],"operatelog":[],"relation":{"id":13622,"experimentId":2792,"gradePhase":2,"subjectId":2,"versionId":1,"textbookId":7,"chapterId":41,"sectionId":163,"rank":162,"auto_update_at":"2022-11-07 15:47:18"}},{"id":2798,"title":"\u8bfe\u98982 \u5316\u5b66\u662f\u4e00\u95e8\u4ee5\u5b9e\u9a8c\u4e3a\u57fa\u7840\u7684\u79d1\u5b66","category":9,"imgUrl":"https:\/\/imgcdn.nobook.com\/img\/20220726\/2022072662dfcd3e0b7cc.png","contents":15,"keywords":"[\"keti2-huaxueshiyimenyishiyanweijichudekexue\",\"kt2-hxsymysywjcdkx\",\"\",\"\u8bfe\u98982 \u5316\u5b66\u662f\u4e00\u95e8\u4ee5\u5b9e\u9a8c\u4e3a\u57fa\u7840\u7684\u79d1\u5b66\",\"aa\"]","vip":0,"actionType":200,"chenmEquation":null,"sort":2798,"knowledge_points_sort":2798,"url":null,"dataVersion":30000,"subjectId":2,"gradePhase":2,"operate":{"id":160,"experiment_id":2798,"hits_count":566,"play_count":0,"share_count":0,"likes_count":0,"created_at":1655713764,"updated_at":1667984660,"auto_update_at":"2022-11-09 17:04:20"},"tag":[{"id":1,"name":"new","colour":"#C42C2C"}],"operatelog":[],"relation":{"id":14154,"experimentId":2798,"gradePhase":2,"subjectId":2,"versionId":1,"textbookId":7,"chapterId":41,"sectionId":164,"rank":163,"auto_update_at":"2022-11-07 15:47:18"}},{"id":2799,"title":"\u8bfe\u98983 \u8d70\u8fdb\u5316\u5b66\u5b9e\u9a8c\u5ba4","category":9,"imgUrl":"https:\/\/imgcdn.nobook.com\/img\/20220726\/2022072662dfcd2d90d27.png","contents":16,"keywords":"[\"keti3-zoujinhuaxueshiyanshi\",\"kt3-zjhxsys\",\"\",\"\u8bfe\u98983 \u8d70\u8fdb\u5316\u5b66\u5b9e\u9a8c\u5ba4\",\"aa\"]","vip":0,"actionType":200,"chenmEquation":null,"sort":2799,"knowledge_points_sort":2799,"url":null,"dataVersion":30000,"subjectId":2,"gradePhase":2,"operate":{"id":138,"experiment_id":2799,"hits_count":551,"play_count":0,"share_count":0,"likes_count":0,"created_at":1655569330,"updated_at":1667984724,"auto_update_at":"2022-11-09 17:05:24"},"tag":[{"id":1,"name":"new","colour":"#C42C2C"}],"operatelog":[],"relation":{"id":14155,"experimentId":2799,"gradePhase":2,"subjectId":2,"versionId":1,"textbookId":7,"chapterId":41,"sectionId":165,"rank":165,"auto_update_at":"2022-11-07 15:47:18"}},{"id":1332,"title":"\u54c1\u7ea2\u5728\u6c34\u4e2d\u7684\u6269\u6563","category":21,"imgUrl":"https:\/\/imgcdn.nobook.com\/chem\/20210917\/201809305bb0735d9acfb.png","contents":"5bb07195bea7fd971e26d2de","keywords":"[\"pinhongzaishuizhongdekuosan\",\"phzszdks\",\"\",\"\u54c1\u7ea2\u5728\u6c34\u4e2d\u7684\u6269\u6563\"]","vip":0,"actionType":400,"chenmEquation":null,"sort":1332,"knowledge_points_sort":82,"url":null,"dataVersion":0,"subjectId":2,"gradePhase":2,"operate":{"id":118,"experiment_id":1332,"hits_count":420,"play_count":0,"share_count":5,"likes_count":0,"created_at":1655457868,"updated_at":1667981085,"auto_update_at":"2022-11-09 16:04:45"},"tag":[],"operatelog":[],"relation":{"id":4400,"experimentId":1332,"gradePhase":2,"subjectId":2,"versionId":1,"textbookId":7,"chapterId":43,"sectionId":170,"rank":166,"auto_update_at":"2022-11-07 15:47:18"}},{"id":2822,"title":"\u7b2c\u4e8c\u5355\u5143 \u8bfe\u98981\u7a7a\u6c14","category":9,"imgUrl":"https:\/\/imgcdn.nobook.com\/img\/20220726\/2022072662dfcd155d86c.png","contents":218,"keywords":"[\"dierdanyuan-keti1kongqi\",\"dedy-kt1kq\",\"\",\"\u7b2c\u4e8c\u5355\u5143 \u8bfe\u98981\u7a7a\u6c14\",\"11\"]","vip":0,"actionType":200,"chenmEquation":null,"sort":2822,"knowledge_points_sort":2822,"url":null,"dataVersion":30000,"subjectId":2,"gradePhase":2,"operate":{"id":139,"experiment_id":2822,"hits_count":733,"play_count":0,"share_count":0,"likes_count":0,"created_at":1655569339,"updated_at":1668003657,"auto_update_at":"2022-11-09 22:20:57"},"tag":[{"id":1,"name":"new","colour":"#C42C2C"}],"operatelog":[],"relation":{"id":14156,"experimentId":2822,"gradePhase":2,"subjectId":2,"versionId":1,"textbookId":7,"chapterId":42,"sectionId":166,"rank":167,"auto_update_at":"2022-11-07 15:47:18"}},{"id":2870,"title":"\u7b2c\u4e8c\u5355\u5143 \u8bfe\u98982 \u6c27\u6c14","category":9,"imgUrl":"https:\/\/imgcdn.nobook.com\/img\/20220726\/2022072662dfcd0309e99.png","contents":250,"keywords":"[\"dierdanyuan-keti2-yangqi\",\"dedy-kt2-yq\",\"\",\"\u7b2c\u4e8c\u5355\u5143 \u8bfe\u98982 \u6c27\u6c14\",\"qq\"]","vip":0,"actionType":200,"chenmEquation":null,"sort":2870,"knowledge_points_sort":2870,"url":null,"dataVersion":30000,"subjectId":2,"gradePhase":2,"operate":{"id":182,"experiment_id":2870,"hits_count":587,"play_count":0,"share_count":0,"likes_count":0,"created_at":1655723835,"updated_at":1667977345,"auto_update_at":"2022-11-09 15:02:25"},"tag":[],"operatelog":[],"relation":{"id":14157,"experimentId":2870,"gradePhase":2,"subjectId":2,"versionId":1,"textbookId":7,"chapterId":42,"sectionId":167,"rank":169,"auto_update_at":"2022-11-07 15:47:18"}},{"id":2871,"title":"\u7b2c\u4e8c\u5355\u5143 \u8bfe\u98983 \u5236\u53d6\u6c27\u6c14","category":9,"imgUrl":"https:\/\/imgcdn.nobook.com\/img\/20220726\/2022072662dfcce85f0a5.png","contents":255,"keywords":"[\"dierdanyuanketi3-zhiquyangqi\",\"dedykt3-zqyq\",\"dierdanyuan-keti3-zhiquyangqi\",\"dedy-kt3-zqyq\",\"\",\"\u7b2c\u4e8c\u5355\u5143\u8bfe\u98983 \u5236\u53d6\u6c27\u6c14\",\"qq\",\"\u7b2c\u4e8c\u5355\u5143 \u8bfe\u98983 \u5236\u53d6\u6c27\u6c14\"]","vip":0,"actionType":200,"chenmEquation":null,"sort":2871,"knowledge_points_sort":2871,"url":null,"dataVersion":30000,"subjectId":2,"gradePhase":2,"operate":{"id":417,"experiment_id":2871,"hits_count":926,"play_count":0,"share_count":0,"likes_count":0,"created_at":1655891044,"updated_at":1668010522,"auto_update_at":"2022-11-10 00:15:22"},"tag":[],"operatelog":[],"relation":{"id":14158,"experimentId":2871,"gradePhase":2,"subjectId":2,"versionId":1,"textbookId":7,"chapterId":42,"sectionId":168,"rank":171,"auto_update_at":"2022-11-07 15:47:18"}},{"id":2898,"title":"\u63a2\u7a76\u6d3b\u52a8\u4e8c","category":9,"imgUrl":"https:\/\/imgcdn.nobook.com\/img\/20220831\/20220831630f06cf5ceb1.png","contents":605,"keywords":"[\"shuqitanjiuhuodonger\",\"sqtjhde\",\"tanjiuhuodonger\",\"tjhde\",\"\",\"\u6691\u671f\u63a2\u7a76\u6d3b\u52a8\u4e8c\",\"pp\",\"\u63a2\u7a76\u6d3b\u52a8\u4e8c\"]","vip":0,"actionType":200,"chenmEquation":null,"sort":2898,"knowledge_points_sort":2898,"url":null,"dataVersion":30001,"subjectId":2,"gradePhase":2,"operate":{"id":1082,"experiment_id":2898,"hits_count":595,"play_count":0,"share_count":0,"likes_count":0,"created_at":1656914765,"updated_at":1667957646,"auto_update_at":"2022-11-09 09:34:06"},"tag":[],"operatelog":[],"relation":{"id":14159,"experimentId":2898,"gradePhase":2,"subjectId":2,"versionId":1,"textbookId":7,"chapterId":42,"sectionId":169,"rank":172,"auto_update_at":"2022-11-07 15:47:18"}},{"id":2899,"title":"\u63a2\u7a76\u6d3b\u52a8\u4e00","category":9,"imgUrl":"https:\/\/imgcdn.nobook.com\/img\/20220831\/20220831630f06bf9ab6f.png","contents":607,"keywords":"[\"shuqitanjiuhuodongyi\",\"sqtjhdy\",\"tanjiuhuodongyi\",\"tjhdy\",\"\",\"\u6691\u671f\u63a2\u7a76\u6d3b\u52a8\u4e00\",\"qq\",\"\u63a2\u7a76\u6d3b\u52a8\u4e00\"]","vip":0,"actionType":200,"chenmEquation":null,"sort":2899,"knowledge_points_sort":2899,"url":null,"dataVersion":30001,"subjectId":2,"gradePhase":2,"operate":{"id":1084,"experiment_id":2899,"hits_count":754,"play_count":0,"share_count":0,"likes_count":0,"created_at":1656915788,"updated_at":1667976871,"auto_update_at":"2022-11-09 14:54:31"},"tag":[],"operatelog":[],"relation":{"id":14160,"experimentId":2899,"gradePhase":2,"subjectId":2,"versionId":1,"textbookId":7,"chapterId":41,"sectionId":163,"rank":173,"auto_update_at":"2022-11-07 15:47:18"}},{"id":2941,"title":"\u56fd\u5e86\u63a2\u7a76\u4e13\u9898\uff1a\u521d\u4e2d\u5316\u5b66","category":9,"imgUrl":"https:\/\/imgcdn.nobook.com\/img\/20220926\/20220926633166c0809c4.jpg","contents":5790,"keywords":"[\"guoqinghuodong\",\"gqhd\",\"guoqingtanjiuzhuantichuzhonghuaxue\",\"gqtjztczhx\",\"\",\"\u56fd\u5e86\u6d3b\u52a8\",\"national day\",\"\u56fd\u5e86\u63a2\u7a76\u4e13\u9898\uff1a\u521d\u4e2d\u5316\u5b66\"]","vip":0,"actionType":200,"chenmEquation":null,"sort":2941,"knowledge_points_sort":2941,"url":null,"dataVersion":30300,"subjectId":2,"gradePhase":2,"operate":{"id":1281,"experiment_id":2941,"hits_count":321,"play_count":0,"share_count":0,"likes_count":0,"created_at":1664182130,"updated_at":1668000947,"auto_update_at":"2022-11-09 21:35:47"},"tag":[{"id":1,"name":"new","colour":"#C42C2C"},{"id":2,"name":"hot","colour":"#E7F216"}],"operatelog":[],"relation":{"id":14165,"experimentId":2941,"gradePhase":2,"subjectId":2,"versionId":1,"textbookId":7,"chapterId":42,"sectionId":169,"rank":174,"auto_update_at":"2022-11-07 15:47:18"}}],"_links":{"self":{"href":"https:\/\/console-v6.nobook.com\/v1\/resource\/index?per-page=30&dataVersion=huaxue_v3.4.0&page=5&gradePhase=2&versionId=1&subjectId=2"},"first":{"href":"https:\/\/console-v6.nobook.com\/v1\/resource\/index?per-page=30&dataVersion=huaxue_v3.4.0&page=1&gradePhase=2&versionId=1&subjectId=2"},"last":{"href":"https:\/\/console-v6.nobook.com\/v1\/resource\/index?per-page=30&dataVersion=huaxue_v3.4.0&page=5&gradePhase=2&versionId=1&subjectId=2"},"prev":{"href":"https:\/\/console-v6.nobook.com\/v1\/resource\/index?per-page=30&dataVersion=huaxue_v3.4.0&page=4&gradePhase=2&versionId=1&subjectId=2"}},"_meta":{"totalCount":142,"pageCount":5,"currentPage":5,"perPage":30},"_extra":{"realTotalCount":139}}