{"code":200,"message":"OK","data":[{"id":486,"title":"\u6bd4\u8f83\u5408\u91d1\u548c\u7eaf\u91d1\u5c5e\u7684\u786c\u5ea6","category":9,"imgUrl":"https:\/\/imgcdn.nobook.com\/chem\/20210917\/2cd787985605fb0fcb7cf63773c9ec3e.png","contents":"2e467d2620450bf00866a0ca83a3d0b2","keywords":"[\"bijiaohejinhechunjinshudeyingdu\",\"bjhjhcjsdyd\",\"\u6bd4\u8f83\u5408\u91d1\u548c\u7eaf\u91d1\u5c5e\u7684\u786c\u5ea6\"]","vip":0,"actionType":100,"chenmEquation":null,"sort":486,"knowledge_points_sort":43,"url":"","dataVersion":0,"subjectId":2,"gradePhase":2,"operate":{"id":274,"experiment_id":486,"hits_count":899,"play_count":0,"share_count":5,"likes_count":1,"created_at":1655862832,"updated_at":1668001737,"auto_update_at":"2022-11-09 21:48:57"},"tag":[],"operatelog":[],"relation":{"id":495,"experimentId":486,"gradePhase":2,"subjectId":2,"versionId":1,"textbookId":8,"chapterId":48,"sectionId":187,"rank":36,"auto_update_at":"2022-11-07 15:58:04"}},{"id":483,"title":"\u706d\u706b\u7684\u539f\u7406","category":9,"imgUrl":"https:\/\/imgcdn.nobook.com\/chem\/20210917\/7507ab99a40edd3dbf60b3c347360270.png","contents":"e8f1e9e2db92f7423fa0a7f7d9d8d054","keywords":"[\"miehuodeyuanli\",\"mhdyl\",\"\u706d\u706b\u7684\u539f\u7406\"]","vip":0,"actionType":100,"chenmEquation":null,"sort":483,"knowledge_points_sort":114,"url":"","dataVersion":0,"subjectId":2,"gradePhase":2,"operate":{"id":270,"experiment_id":483,"hits_count":1126,"play_count":0,"share_count":18,"likes_count":0,"created_at":1655862545,"updated_at":1668003481,"auto_update_at":"2022-11-09 22:18:01"},"tag":[],"operatelog":[],"relation":{"id":498,"experimentId":483,"gradePhase":2,"subjectId":2,"versionId":1,"textbookId":7,"chapterId":47,"sectionId":184,"rank":37,"auto_update_at":"2022-11-07 15:58:04"}},{"id":477,"title":"\u4e8c\u6c27\u5316\u78b3\u7684\u6eb6\u89e3\u6027\u5b9e\u9a8c","category":9,"imgUrl":"https:\/\/imgcdn.nobook.com\/chem\/20210917\/a1d5f095bd076d4f6b63b4fc00b856c5.png","contents":"f8c05d20e331e5fcbe1e160ae73dd818","keywords":"[\"eryanghuatanderongjiexingshiyan\",\"eyhtdrjxsy\",\"\u4e8c\u6c27\u5316\u78b3\u7684\u6eb6\u89e3\u6027\u5b9e\u9a8c\"]","vip":0,"actionType":100,"chenmEquation":null,"sort":477,"knowledge_points_sort":77,"url":"","dataVersion":0,"subjectId":2,"gradePhase":2,"operate":{"id":445,"experiment_id":477,"hits_count":1065,"play_count":0,"share_count":9,"likes_count":0,"created_at":1655907245,"updated_at":1668031803,"auto_update_at":"2022-11-10 06:10:03"},"tag":[],"operatelog":[],"relation":{"id":514,"experimentId":477,"gradePhase":2,"subjectId":2,"versionId":1,"textbookId":7,"chapterId":46,"sectionId":182,"rank":38,"auto_update_at":"2022-11-07 15:58:04"}},{"id":473,"title":"\u503e\u5012\u4e8c\u6c27\u5316\u78b3","category":9,"imgUrl":"https:\/\/imgcdn.nobook.com\/chem\/20210917\/49721c9d989194a0cd72977261aa64dc.png","contents":"e54ad49c176c835837b1d0c76f7115a0","keywords":"[\"qingdaoeryanghuatan\",\"qdeyht\",\"\u503e\u5012\u4e8c\u6c27\u5316\u78b3\"]","vip":0,"actionType":100,"chenmEquation":null,"sort":473,"knowledge_points_sort":76,"url":"","dataVersion":0,"subjectId":2,"gradePhase":2,"operate":{"id":373,"experiment_id":473,"hits_count":1168,"play_count":0,"share_count":12,"likes_count":0,"created_at":1655884930,"updated_at":1667999119,"auto_update_at":"2022-11-09 21:05:19"},"tag":[],"operatelog":[],"relation":{"id":530,"experimentId":473,"gradePhase":2,"subjectId":2,"versionId":1,"textbookId":7,"chapterId":46,"sectionId":182,"rank":39,"auto_update_at":"2022-11-07 15:58:04"}},{"id":455,"title":"\u52a0\u70ed\u6c2f\u9178\u94be\u5236\u53d6\u6c27\u6c14","category":9,"imgUrl":"https:\/\/imgcdn.nobook.com\/img\/20220802\/2022080262e89bf9d0613.png","contents":"e4e6568f1ed190e3eb94b6faf636d3a1","keywords":"[\"jiarelvsuanjiazhiquyangqi\",\"jrlsjzqyq\",\"\u52a0\u70ed\u6c2f\u9178\u94be\u5236\u53d6\u6c27\u6c14\",\"\",null]","vip":0,"actionType":100,"chenmEquation":"2KClO3=MnO2&\u25b3=2KCl+3O2_g","sort":455,"knowledge_points_sort":15,"url":null,"dataVersion":0,"subjectId":2,"gradePhase":2,"operate":{"id":42,"experiment_id":455,"hits_count":10278,"play_count":0,"share_count":37,"likes_count":5,"created_at":1655273370,"updated_at":1668009296,"auto_update_at":"2022-11-09 23:54:56"},"tag":[],"operatelog":[],"relation":{"id":13648,"experimentId":455,"gradePhase":2,"subjectId":2,"versionId":1,"textbookId":7,"chapterId":42,"sectionId":168,"rank":40,"auto_update_at":"2022-11-07 15:58:04"}},{"id":463,"title":"\u7528\u80a5\u7682\u6c34\u533a\u5206\u8f6f\u6c34\u548c\u786c\u6c34","category":9,"imgUrl":"https:\/\/imgcdn.nobook.com\/chem\/20210917\/b0474a62e1a413c294d830c829dbee90.png","contents":"3c2b7fc11370ee4388d1b633f1458a2e","keywords":"[\"yongfeizaoshuiqufenruanshuiheyingshui\",\"yfzsqfrshys\",\"\u7528\u80a5\u7682\u6c34\u533a\u5206\u8f6f\u6c34\u548c\u786c\u6c34\"]","vip":0,"actionType":100,"chenmEquation":null,"sort":463,"knowledge_points_sort":27,"url":"","dataVersion":0,"subjectId":2,"gradePhase":2,"operate":{"id":265,"experiment_id":463,"hits_count":1015,"play_count":0,"share_count":12,"likes_count":0,"created_at":1655861842,"updated_at":1668004028,"auto_update_at":"2022-11-09 22:27:08"},"tag":[],"operatelog":[],"relation":{"id":545,"experimentId":463,"gradePhase":2,"subjectId":2,"versionId":1,"textbookId":7,"chapterId":44,"sectionId":174,"rank":41,"auto_update_at":"2022-11-07 15:58:04"}},{"id":464,"title":"\u5236\u53d6\u84b8\u998f\u6c34\u7684\u7b80\u6613\u88c5\u7f6e","category":9,"imgUrl":"https:\/\/imgcdn.nobook.com\/chem\/20210917\/c00317d9d1f1823d3a151d338be40f7b.png","contents":"29b9f11e828688a0c394af2a1be9af1b","keywords":"[\"zhiquzhengliushuidejianyizhuangzhi\",\"zqzlsdjyzz\",\"\u5236\u53d6\u84b8\u998f\u6c34\u7684\u7b80\u6613\u88c5\u7f6e\"]","vip":0,"actionType":100,"chenmEquation":null,"sort":464,"knowledge_points_sort":28,"url":"","dataVersion":0,"subjectId":2,"gradePhase":2,"operate":{"id":266,"experiment_id":464,"hits_count":1220,"play_count":0,"share_count":6,"likes_count":2,"created_at":1655861959,"updated_at":1668004210,"auto_update_at":"2022-11-09 22:30:10"},"tag":[],"operatelog":[],"relation":{"id":546,"experimentId":464,"gradePhase":2,"subjectId":2,"versionId":1,"textbookId":7,"chapterId":44,"sectionId":174,"rank":42,"auto_update_at":"2022-11-07 15:58:04"}},{"id":465,"title":"\u5b9e\u9a8c\u5ba4\u5e38\u7528\u7684\u84b8\u998f\u88c5\u7f6e","category":9,"imgUrl":"https:\/\/imgcdn.nobook.com\/chem\/20210917\/e0a8bee386db435aa399a1bfc8d9d08b.png","contents":"55d691f37bd83d259cdbd6f86539e867","keywords":"[\"shiyanshichangyongdezhengliuzhuangzhi\",\"syscydzlzz\",\"\u5b9e\u9a8c\u5ba4\u5e38\u7528\u7684\u84b8\u998f\u88c5\u7f6e\"]","vip":0,"actionType":100,"chenmEquation":null,"sort":465,"knowledge_points_sort":29,"url":"","dataVersion":0,"subjectId":2,"gradePhase":2,"operate":{"id":441,"experiment_id":465,"hits_count":1772,"play_count":0,"share_count":14,"likes_count":3,"created_at":1655906603,"updated_at":1668004752,"auto_update_at":"2022-11-09 22:39:12"},"tag":[],"operatelog":[],"relation":{"id":547,"experimentId":465,"gradePhase":2,"subjectId":2,"versionId":1,"textbookId":7,"chapterId":44,"sectionId":174,"rank":43,"auto_update_at":"2022-11-07 15:58:04"}},{"id":353,"title":"\u6eb6\u89e3\u65f6\u7684\u5438\u70ed\u6216\u653e\u70ed\u73b0\u8c61","category":9,"imgUrl":"https:\/\/imgcdn.nobook.com\/chem\/20210917\/58f10b16da57a8273f3a3fb059e34c23.png","contents":"63bc38be68d40550da82b5f49c49d756","keywords":"[\"rongjieshidexirehuofangrexianxiang\",\"rjsdxrhfrxx\",\"\u6eb6\u89e3\u65f6\u7684\u5438\u70ed\u6216\u653e\u70ed\u73b0\u8c61\"]","vip":0,"actionType":100,"chenmEquation":null,"sort":353,"knowledge_points_sort":34,"url":"","dataVersion":0,"subjectId":2,"gradePhase":2,"operate":{"id":424,"experiment_id":353,"hits_count":214,"play_count":0,"share_count":10,"likes_count":0,"created_at":1655895133,"updated_at":1667939586,"auto_update_at":"2022-11-09 04:33:06"},"tag":[],"operatelog":[],"relation":{"id":614,"experimentId":353,"gradePhase":2,"subjectId":2,"versionId":1,"textbookId":8,"chapterId":49,"sectionId":207,"rank":45,"auto_update_at":"2022-11-07 15:58:04"}},{"id":356,"title":"\u805a\u4e59\u70ef\u5851\u6599\u7684\u70ed\u5851\u6027","category":9,"imgUrl":"https:\/\/imgcdn.nobook.com\/chem\/20210917\/96f982ea39e89127ff7f84dd2c543e29.png","contents":"9962c274776e8da6f8403a30b68c3ab5","keywords":"[\"juyixisuliaoderesuxing\",\"jyxsldrsx\",\"\u805a\u4e59\u70ef\u5851\u6599\u7684\u70ed\u5851\u6027\"]","vip":0,"actionType":100,"chenmEquation":null,"sort":356,"knowledge_points_sort":122,"url":"","dataVersion":0,"subjectId":2,"gradePhase":2,"operate":{"id":461,"experiment_id":356,"hits_count":482,"play_count":0,"share_count":4,"likes_count":0,"created_at":1655953377,"updated_at":1667964750,"auto_update_at":"2022-11-09 11:32:30"},"tag":[],"operatelog":[],"relation":{"id":620,"experimentId":356,"gradePhase":2,"subjectId":2,"versionId":1,"textbookId":8,"chapterId":52,"sectionId":216,"rank":46,"auto_update_at":"2022-11-07 15:58:04"}},{"id":375,"title":"\u7d2b\u8272\u77f3\u854a\u8bd5\u6db2\u5206\u522b\u4e0e\u9178\u548c\u78b1\u7684\u53cd\u5e94","category":9,"imgUrl":"https:\/\/imgcdn.nobook.com\/chem\/20210917\/04d162348637b33dc13fae7b5c9cfcaa.png","contents":"55a1e15a5326db8c0aa72fd9fcae12c1","keywords":"[\"ziseshiruishiyefenbieyusuanhejiandefanying\",\"zssrsyfbyshjdfy\",\"\u7d2b\u8272\u77f3\u854a\u8bd5\u6db2\u5206\u522b\u4e0e\u9178\u548c\u78b1\u7684\u53cd\u5e94\"]","vip":0,"actionType":100,"chenmEquation":null,"sort":375,"knowledge_points_sort":49,"url":"","dataVersion":0,"subjectId":2,"gradePhase":2,"operate":{"id":545,"experiment_id":375,"hits_count":434,"play_count":0,"share_count":3,"likes_count":0,"created_at":1655978574,"updated_at":1667907548,"auto_update_at":"2022-11-08 19:39:08"},"tag":[],"operatelog":[],"relation":{"id":659,"experimentId":375,"gradePhase":2,"subjectId":2,"versionId":1,"textbookId":8,"chapterId":50,"sectionId":195,"rank":48,"auto_update_at":"2022-11-07 15:58:04"}},{"id":376,"title":"\u6c22\u6c27\u5316\u94a0\u7684\u7269\u7406\u6027\u8d28","category":9,"imgUrl":"https:\/\/imgcdn.nobook.com\/chem\/20210917\/1e177f57c8a76a81b83258571bb4e654.png","contents":"8c74c71d868bde02559727da2a0505de","keywords":"[\"qingyanghuanadewulixingzhi\",\"qyhndwlxz\",\"\u6c22\u6c27\u5316\u94a0\u7684\u7269\u7406\u6027\u8d28\"]","vip":0,"actionType":100,"chenmEquation":null,"sort":376,"knowledge_points_sort":50,"url":"","dataVersion":0,"subjectId":2,"gradePhase":2,"operate":{"id":359,"experiment_id":376,"hits_count":273,"play_count":0,"share_count":3,"likes_count":0,"created_at":1655883772,"updated_at":1667993311,"auto_update_at":"2022-11-09 19:28:31"},"tag":[],"operatelog":[],"relation":{"id":702,"experimentId":376,"gradePhase":2,"subjectId":2,"versionId":1,"textbookId":8,"chapterId":50,"sectionId":195,"rank":49,"auto_update_at":"2022-11-07 15:58:04"}},{"id":378,"title":"\u63a2\u7a76\u9178\u78b1\u76d0\u7684\u6210\u5206","category":9,"imgUrl":"https:\/\/imgcdn.nobook.com\/chem\/20210917\/55f8c79dbdcc69c717dad7aee5a57687.png","contents":"4af7f52e6822c8da7434cbcc1fdfe387","keywords":"[\"tanjiusuanjianyandechengfen\",\"tjsjydcf\",\"\u63a2\u7a76\u9178\u78b1\u76d0\u7684\u6210\u5206\"]","vip":0,"actionType":100,"chenmEquation":null,"sort":378,"knowledge_points_sort":17,"url":"","dataVersion":0,"subjectId":2,"gradePhase":2,"operate":{"id":462,"experiment_id":378,"hits_count":166,"play_count":0,"share_count":3,"likes_count":1,"created_at":1655953434,"updated_at":1667966757,"auto_update_at":"2022-11-09 12:05:57"},"tag":[],"operatelog":[],"relation":{"id":709,"experimentId":378,"gradePhase":2,"subjectId":2,"versionId":1,"textbookId":8,"chapterId":51,"sectionId":211,"rank":50,"auto_update_at":"2022-11-07 15:58:04"}},{"id":379,"title":"\u8bd5\u9a8c\u7269\u8d28\u7684\u5bfc\u7535\u6027","category":9,"imgUrl":"https:\/\/imgcdn.nobook.com\/chem\/20210917\/6d50d3cb444b79807e2e5502cecd0b1e.png","contents":"d796e2fc0738be1c4c623fdd05c979e4","keywords":"[\"shiyanwuzhidedaodianxing\",\"sywzdddx\",\"\u8bd5\u9a8c\u7269\u8d28\u7684\u5bfc\u7535\u6027\"]","vip":0,"actionType":100,"chenmEquation":null,"sort":379,"knowledge_points_sort":51,"url":"","dataVersion":0,"subjectId":2,"gradePhase":2,"operate":{"id":293,"experiment_id":379,"hits_count":403,"play_count":0,"share_count":3,"likes_count":0,"created_at":1655865633,"updated_at":1668006368,"auto_update_at":"2022-11-09 23:06:08"},"tag":[],"operatelog":[],"relation":{"id":713,"experimentId":379,"gradePhase":2,"subjectId":2,"versionId":1,"textbookId":8,"chapterId":50,"sectionId":195,"rank":51,"auto_update_at":"2022-11-07 15:58:04"}},{"id":382,"title":"\u6d53\u786b\u9178\u6709\u8150\u8680\u6027","category":9,"imgUrl":"https:\/\/imgcdn.nobook.com\/chem\/20210917\/f2c709e44d6df31745e30663eaf32cc3.png","contents":"14ea0f3676977df67688ef562a349c52","keywords":"[\"nongliusuanyoufushixing\",\"nlsyfsx\",\"\u6d53\u786b\u9178\u6709\u8150\u8680\u6027\"]","vip":0,"actionType":100,"chenmEquation":null,"sort":382,"knowledge_points_sort":54,"url":"","dataVersion":0,"subjectId":2,"gradePhase":2,"operate":{"id":564,"experiment_id":382,"hits_count":1036,"play_count":0,"share_count":3,"likes_count":0,"created_at":1656015307,"updated_at":1667998905,"auto_update_at":"2022-11-09 21:01:45"},"tag":[],"operatelog":[],"relation":{"id":739,"experimentId":382,"gradePhase":2,"subjectId":2,"versionId":1,"textbookId":8,"chapterId":50,"sectionId":195,"rank":52,"auto_update_at":"2022-11-07 15:58:04"}},{"id":381,"title":"\u65e0\u8272\u915a\u915e\u8bd5\u6db2\u5206\u522b\u4e0e\u9178\u548c\u78b1\u7684\u53cd\u5e94","category":9,"imgUrl":"https:\/\/imgcdn.nobook.com\/chem\/20210917\/bffc6708ac4fb429cc1b37ba3cc9db25.png","contents":"3ac905c5f516fbc95a74da9abb65c316","keywords":"[\"wusefentaishiyefenbieyusuanhejiandefanying\",\"wsftsyfbyshjdfy\",\"\u65e0\u8272\u915a\u915e\u8bd5\u6db2\u5206\u522b\u4e0e\u9178\u548c\u78b1\u7684\u53cd\u5e94\"]","vip":0,"actionType":100,"chenmEquation":null,"sort":381,"knowledge_points_sort":53,"url":"","dataVersion":0,"subjectId":2,"gradePhase":2,"operate":{"id":101,"experiment_id":381,"hits_count":214,"play_count":0,"share_count":4,"likes_count":0,"created_at":1655432873,"updated_at":1667978010,"auto_update_at":"2022-11-09 15:13:30"},"tag":[],"operatelog":[],"relation":{"id":740,"experimentId":381,"gradePhase":2,"subjectId":2,"versionId":1,"textbookId":8,"chapterId":50,"sectionId":195,"rank":53,"auto_update_at":"2022-11-07 15:58:04"}},{"id":495,"title":"\u6c34\u548c\u4e59\u9187\u4e92\u6eb6\u5b9e\u9a8c","category":9,"imgUrl":"https:\/\/imgcdn.nobook.com\/chem\/20210917\/a9be007b5ec2e22445e92b62b4711a94.png","contents":"d9232cae8674f836c36f6edef42eb7e7","keywords":"[\"shuiheyichunhurongshiyan\",\"shychrsy\",\"\u6c34\u548c\u4e59\u9187\u4e92\u6eb6\u5b9e\u9a8c\"]","vip":0,"actionType":100,"chenmEquation":null,"sort":495,"knowledge_points_sort":37,"url":"","dataVersion":0,"subjectId":2,"gradePhase":2,"operate":{"id":468,"experiment_id":495,"hits_count":352,"play_count":0,"share_count":4,"likes_count":0,"created_at":1655959877,"updated_at":1667993317,"auto_update_at":"2022-11-09 19:28:37"},"tag":[],"operatelog":[],"relation":{"id":481,"experimentId":495,"gradePhase":2,"subjectId":2,"versionId":1,"textbookId":8,"chapterId":49,"sectionId":207,"rank":55,"auto_update_at":"2022-11-07 15:58:04"}},{"id":2634,"title":"\u5206\u5b50\u8fd0\u52a8\u73b0\u8c61","category":9,"imgUrl":"https:\/\/imgcdn.nobook.com\/img\/20211227\/2021122761c933c4e5899.png","contents":"52520e3a0608f53033007d68e4e310db","keywords":"[\"fenziyundongxianxiang\",\"fzydxx\",\"\",\"\u5206\u5b50\u8fd0\u52a8\u73b0\u8c61\",\"qqqq\"]","vip":0,"actionType":100,"chenmEquation":null,"sort":2634,"knowledge_points_sort":92,"url":"","dataVersion":0,"subjectId":2,"gradePhase":2,"operate":{"id":442,"experiment_id":2634,"hits_count":1142,"play_count":0,"share_count":17,"likes_count":1,"created_at":1655906735,"updated_at":1668002034,"auto_update_at":"2022-11-09 21:53:54"},"tag":[],"operatelog":[],"relation":{"id":10966,"experimentId":2634,"gradePhase":2,"subjectId":2,"versionId":1,"textbookId":7,"chapterId":43,"sectionId":170,"rank":59,"auto_update_at":"2022-11-07 15:58:04"}},{"id":470,"title":"\u76d0\u9178\u4e0e\u78b3\u9178\u94a0\u7c89\u672b\u53cd\u5e94\u524d\u540e\u8d28\u91cf\u7684\u6d4b\u5b9a","category":9,"imgUrl":"https:\/\/imgcdn.nobook.com\/chem\/20210917\/e51523e976b5cf8b6909d262772f724a.png","contents":"2abf39eeb1ec0ba5981fd2a524c56eee","keywords":"[\"yansuanyutansuannafenmofanyingqianhouzhiliangdeceding\",\"ysytsnfmfyqhzldcd\",\"\u76d0\u9178\u4e0e\u78b3\u9178\u94a0\u7c89\u672b\u53cd\u5e94\u524d\u540e\u8d28\u91cf\u7684\u6d4b\u5b9a\",null]","vip":0,"actionType":100,"chenmEquation":"Na2CO3+2HCl==2NaCl+H2O+CO2_g","sort":470,"knowledge_points_sort":112,"url":"","dataVersion":0,"subjectId":2,"gradePhase":2,"operate":{"id":511,"experiment_id":470,"hits_count":3758,"play_count":0,"share_count":29,"likes_count":2,"created_at":1655967982,"updated_at":1668006458,"auto_update_at":"2022-11-09 23:07:38"},"tag":[],"operatelog":[],"relation":{"id":8167,"experimentId":470,"gradePhase":2,"subjectId":2,"versionId":1,"textbookId":7,"chapterId":45,"sectionId":177,"rank":61,"auto_update_at":"2022-11-07 15:58:04"}},{"id":494,"title":"\u785d\u9178\u94be\u5728\u6c34\u4e2d\u6eb6\u89e3","category":9,"imgUrl":"https:\/\/imgcdn.nobook.com\/chem\/20210917\/92f21df3619cb11784c7aa00194bcd55.png","contents":"4c3a5d1695f89c2f1af2a266015e6b01","keywords":"[\"xiaosuanjiazaishuizhongrongjie\",\"xsjzszrj\",\"\u785d\u9178\u94be\u5728\u6c34\u4e2d\u6eb6\u89e3\"]","vip":0,"actionType":100,"chenmEquation":null,"sort":494,"knowledge_points_sort":40,"url":"","dataVersion":0,"subjectId":2,"gradePhase":2,"operate":{"id":693,"experiment_id":494,"hits_count":199,"play_count":0,"share_count":5,"likes_count":1,"created_at":1656297672,"updated_at":1667899171,"auto_update_at":"2022-11-08 17:19:31"},"tag":[],"operatelog":[],"relation":{"id":482,"experimentId":494,"gradePhase":2,"subjectId":2,"versionId":1,"textbookId":8,"chapterId":49,"sectionId":208,"rank":62,"auto_update_at":"2022-11-07 15:58:04"}},{"id":2125,"title":"\u6307\u793a\u5242\u6d4b\u5b9a\u9178\u78b1\u6027","category":9,"imgUrl":"https:\/\/imgcdn.nobook.com\/chem\/20210917\/201904245cbfcca3cdbdf.png","contents":"177a7e062850a7ee8f72c6481aa22f18","keywords":"[\"zhishijicedingsuanjianxing\",\"zsjcdsjx\",\"\",\"\u6307\u793a\u5242\u6d4b\u5b9a\u9178\u78b1\u6027\"]","vip":0,"actionType":100,"chenmEquation":null,"sort":2125,"knowledge_points_sort":55,"url":"","dataVersion":0,"subjectId":2,"gradePhase":2,"operate":{"id":880,"experiment_id":2125,"hits_count":227,"play_count":0,"share_count":3,"likes_count":0,"created_at":1656559744,"updated_at":1668002922,"auto_update_at":"2022-11-09 22:08:42"},"tag":[],"operatelog":[],"relation":{"id":5746,"experimentId":2125,"gradePhase":2,"subjectId":2,"versionId":1,"textbookId":8,"chapterId":50,"sectionId":195,"rank":63,"auto_update_at":"2022-11-07 15:58:04"}},{"id":460,"title":"\u6d4b\u5b9a\u7a7a\u6c14\u91cc\u6c27\u6c14\u542b\u91cf","category":9,"imgUrl":"https:\/\/imgcdn.nobook.com\/chem\/20210917\/cc326b884bd38c2fcdfddd307890041d.png","contents":"21aad64f4fe6aff318e62276e627546a","keywords":"[\"cedingkongqiliyangqihanliang\",\"cdkqlyqhl\",\"\u6d4b\u5b9a\u7a7a\u6c14\u91cc\u6c27\u6c14\u542b\u91cf\"]","vip":0,"actionType":100,"chenmEquation":"4P+5O2=\u70b9\u71c3=2P2O5","sort":460,"knowledge_points_sort":20,"url":"","dataVersion":0,"subjectId":2,"gradePhase":2,"operate":{"id":44,"experiment_id":460,"hits_count":3361,"play_count":0,"share_count":49,"likes_count":1,"created_at":1655273379,"updated_at":1668001880,"auto_update_at":"2022-11-09 21:51:20"},"tag":[],"operatelog":[],"relation":{"id":6692,"experimentId":460,"gradePhase":2,"subjectId":2,"versionId":1,"textbookId":7,"chapterId":42,"sectionId":166,"rank":64,"auto_update_at":"2022-11-07 15:58:04"}},{"id":458,"title":"\u786b\u5206\u522b\u5728\u7a7a\u6c14\u548c\u6c27\u6c14\u91cc\u71c3\u70e7","category":9,"imgUrl":"https:\/\/imgcdn.nobook.com\/chem\/20210917\/82e37b8aa15cedd7a879732354e5d7a7.png","contents":"6e7391f899cbd07089dfe2d02cacb7b8","keywords":"[\"liufenbiezaikongqiheyangqiliranshao\",\"lfbzkqhyqlrs\",\"\",\"\u786b\u5206\u522b\u5728\u7a7a\u6c14\u548c\u6c27\u6c14\u91cc\u71c3\u70e7\"]","vip":0,"actionType":100,"chenmEquation":"S+O2=\u70b9\u71c3=SO2","sort":458,"knowledge_points_sort":23,"url":"","dataVersion":0,"subjectId":2,"gradePhase":2,"operate":{"id":582,"experiment_id":458,"hits_count":1863,"play_count":0,"share_count":18,"likes_count":2,"created_at":1656064028,"updated_at":1668008537,"auto_update_at":"2022-11-09 23:42:17"},"tag":[],"operatelog":[],"relation":{"id":6694,"experimentId":458,"gradePhase":2,"subjectId":2,"versionId":1,"textbookId":7,"chapterId":42,"sectionId":167,"rank":65,"auto_update_at":"2022-11-07 15:58:04"}},{"id":490,"title":"\u6c2f\u5316\u94a0\u5728\u6c34\u4e2d\u6eb6\u89e3","category":9,"imgUrl":"https:\/\/imgcdn.nobook.com\/chem\/20210917\/5697626db6e17b1f91c9aa38a8b9e11a.png","contents":"f14b04773937a0d83f2c1a88b38878db","keywords":"[\"lvhuanazaishuizhongrongjie\",\"lhnzszrj\",\"\u6c2f\u5316\u94a0\u5728\u6c34\u4e2d\u6eb6\u89e3\"]","vip":0,"actionType":100,"chenmEquation":null,"sort":490,"knowledge_points_sort":39,"url":"","dataVersion":0,"subjectId":2,"gradePhase":2,"operate":{"id":230,"experiment_id":490,"hits_count":208,"play_count":0,"share_count":5,"likes_count":0,"created_at":1655830590,"updated_at":1667993557,"auto_update_at":"2022-11-09 19:32:37"},"tag":[],"operatelog":[],"relation":{"id":488,"experimentId":490,"gradePhase":2,"subjectId":2,"versionId":1,"textbookId":8,"chapterId":49,"sectionId":208,"rank":66,"auto_update_at":"2022-11-07 15:58:04"}},{"id":456,"title":"\u8fc7\u6c27\u5316\u6c22\u5206\u89e3","category":9,"imgUrl":"https:\/\/imgcdn.nobook.com\/chem\/20210917\/3b30c236190e895967891c7235028a11.png","contents":"6e056055fba53a4b12c6ecb9618cc407","keywords":"[\"guoyanghuaqingfenjie\",\"gyhqfj\",\"zhiquqiti\",\"zqqt\",\"\u8fc7\u6c27\u5316\u6c22\u5206\u89e3\",\"\u5236\u53d6\u6c14\u4f53\"]","vip":0,"actionType":100,"chenmEquation":"2H2O2=MnO2=2H2O+O2_g","sort":456,"knowledge_points_sort":24,"url":"","dataVersion":0,"subjectId":2,"gradePhase":2,"operate":{"id":156,"experiment_id":456,"hits_count":2315,"play_count":0,"share_count":28,"likes_count":1,"created_at":1655708157,"updated_at":1668008307,"auto_update_at":"2022-11-09 23:38:27"},"tag":[],"operatelog":[],"relation":{"id":6696,"experimentId":456,"gradePhase":2,"subjectId":2,"versionId":1,"textbookId":7,"chapterId":42,"sectionId":168,"rank":67,"auto_update_at":"2022-11-07 15:58:04"}},{"id":462,"title":"\u6c22\u6c14\u5728\u7a7a\u6c14\u91cc\u71c3\u70e7","category":9,"imgUrl":"https:\/\/imgcdn.nobook.com\/chem\/20210917\/8f3203ad59c620c5eaafff0b22673de0.png","contents":"213d0e995aea7fb3749dbc65fe2fc42a","keywords":"[\"qingqizaikongqiliranshao\",\"qqzkqlrs\",\"\u6c22\u6c14\u5728\u7a7a\u6c14\u91cc\u71c3\u70e7\"]","vip":0,"actionType":100,"chenmEquation":"2H2+O2=\u70b9\u71c3=2H2O","sort":462,"knowledge_points_sort":33,"url":"","dataVersion":0,"subjectId":2,"gradePhase":2,"operate":{"id":269,"experiment_id":462,"hits_count":1333,"play_count":0,"share_count":10,"likes_count":0,"created_at":1655862339,"updated_at":1668003559,"auto_update_at":"2022-11-09 22:19:19"},"tag":[],"operatelog":[],"relation":{"id":6699,"experimentId":462,"gradePhase":2,"subjectId":2,"versionId":1,"textbookId":7,"chapterId":44,"sectionId":175,"rank":68,"auto_update_at":"2022-11-07 15:58:04"}},{"id":2681,"title":"\u71c3\u70e7\u6761\u4ef6\u7684\u63a2\u7a76","category":9,"imgUrl":"https:\/\/imgcdn.nobook.com\/chem\/20210917\/2021052760af03cf211a2.jpg","contents":"a9ed057082c7b5c138fd3241648c76f2","keywords":"[\"ranshaotiaojiandetanjiu\",\"rstjdtj\",\"\",\"\u71c3\u70e7\u6761\u4ef6\u7684\u63a2\u7a76\",\"mmm\"]","vip":0,"actionType":100,"chenmEquation":null,"sort":2681,"knowledge_points_sort":116,"url":null,"dataVersion":30100,"subjectId":2,"gradePhase":2,"operate":{"id":446,"experiment_id":2681,"hits_count":471,"play_count":0,"share_count":12,"likes_count":0,"created_at":1655908055,"updated_at":1668006789,"auto_update_at":"2022-11-09 23:13:10"},"tag":[],"operatelog":[],"relation":{"id":14123,"experimentId":2681,"gradePhase":2,"subjectId":2,"versionId":1,"textbookId":7,"chapterId":47,"sectionId":186,"rank":69,"auto_update_at":"2022-11-07 15:58:04"}},{"id":2677,"title":"\u94c1\u5236\u54c1\u9508\u8680\u7684\u5b9e\u9a8c","category":9,"imgUrl":"https:\/\/imgcdn.nobook.com\/chem\/20210917\/2021052660adfeb8d3b91.png","contents":"dd1574a74ddb71213e19a389f6ae8cdc","keywords":"[\"tiezhipinxiushideshiyan\",\"tzpxsdsy\",\"tiedingshengxiu\",\"tdsx\",\"tiedingfushi\",\"tdfs\",\"jinshufushi\",\"jsfs\",\"\",\"\u94c1\u5236\u54c1\u9508\u8680\u7684\u5b9e\u9a8c\",\"iron\",\"\u94c1\u9489\u751f\u9508\",\"\u94c1\u9489\u8150\u8680\",\"tidingfushi\",\"\u91d1\u5c5e\u8150\u8680\"]","vip":0,"actionType":100,"chenmEquation":null,"sort":2677,"knowledge_points_sort":46,"url":"","dataVersion":0,"subjectId":2,"gradePhase":2,"operate":{"id":423,"experiment_id":2677,"hits_count":740,"play_count":0,"share_count":10,"likes_count":2,"created_at":1655892738,"updated_at":1668006166,"auto_update_at":"2022-11-09 23:02:46"},"tag":[],"operatelog":[],"relation":{"id":10964,"experimentId":2677,"gradePhase":2,"subjectId":2,"versionId":1,"textbookId":8,"chapterId":48,"sectionId":189,"rank":70,"auto_update_at":"2022-11-07 15:58:04"}},{"id":475,"title":"\u6d3b\u6027\u70ad\u7684\u5438\u9644\u6027\u5b9e\u9a8c","category":9,"imgUrl":"https:\/\/imgcdn.nobook.com\/img\/20220225\/2022022562184be94ac56.png","contents":"863b4748a4eabd5a1f29f49e43f639bf","keywords":"[\"huoxingtandexifuxingshiyan\",\"hxtdxfxsy\",\"\u6d3b\u6027\u70ad\u7684\u5438\u9644\u6027\u5b9e\u9a8c\",\"\",null]","vip":0,"actionType":100,"chenmEquation":null,"sort":475,"knowledge_points_sort":68,"url":"","dataVersion":0,"subjectId":2,"gradePhase":2,"operate":{"id":425,"experiment_id":475,"hits_count":632,"play_count":0,"share_count":11,"likes_count":0,"created_at":1655895225,"updated_at":1667995823,"auto_update_at":"2022-11-09 20:10:23"},"tag":[],"operatelog":[],"relation":{"id":11041,"experimentId":475,"gradePhase":2,"subjectId":2,"versionId":1,"textbookId":7,"chapterId":46,"sectionId":180,"rank":71,"auto_update_at":"2022-11-07 15:58:04"}},{"id":461,"title":"\u7535\u89e3\u6c34\u5b9e\u9a8c","category":9,"imgUrl":"https:\/\/imgcdn.nobook.com\/chem\/20210917\/620c137d23c9eab9793964f89bbc9abf.png","contents":"dfc2e63fbae43b05532ab650a7369919","keywords":"[\"dianjieshuishiyan\",\"djssy\",\"\u7535\u89e3\u6c34\u5b9e\u9a8c\"]","vip":0,"actionType":100,"chenmEquation":"2H2O=\u901a\u7535=2H2_g+O2_g","sort":461,"knowledge_points_sort":32,"url":"","dataVersion":0,"subjectId":2,"gradePhase":2,"operate":{"id":190,"experiment_id":461,"hits_count":2538,"play_count":0,"share_count":25,"likes_count":0,"created_at":1655782476,"updated_at":1668003674,"auto_update_at":"2022-11-09 22:21:14"},"tag":[],"operatelog":[],"relation":{"id":6700,"experimentId":461,"gradePhase":2,"subjectId":2,"versionId":1,"textbookId":7,"chapterId":44,"sectionId":175,"rank":72,"auto_update_at":"2022-11-07 15:58:04"}}],"_links":{"self":{"href":"https:\/\/console-v6.nobook.com\/v1\/resource\/index?per-page=30&dataVersion=huaxue_v3.4.0&page=2&gradePhase=2&versionId=1&subjectId=2"},"first":{"href":"https:\/\/console-v6.nobook.com\/v1\/resource\/index?per-page=30&dataVersion=huaxue_v3.4.0&page=1&gradePhase=2&versionId=1&subjectId=2"},"last":{"href":"https:\/\/console-v6.nobook.com\/v1\/resource\/index?per-page=30&dataVersion=huaxue_v3.4.0&page=5&gradePhase=2&versionId=1&subjectId=2"},"prev":{"href":"https:\/\/console-v6.nobook.com\/v1\/resource\/index?per-page=30&dataVersion=huaxue_v3.4.0&page=1&gradePhase=2&versionId=1&subjectId=2"},"next":{"href":"https:\/\/console-v6.nobook.com\/v1\/resource\/index?per-page=30&dataVersion=huaxue_v3.4.0&page=3&gradePhase=2&versionId=1&subjectId=2"}},"_meta":{"totalCount":142,"pageCount":5,"currentPage":2,"perPage":30},"_extra":{"realTotalCount":139}}