{"code":200,"message":"OK","data":[{"id":346,"title":"\u52a0\u70ed\u9ad8\u9530\u9178\u94be\u5236\u53d6\u6c27\u6c14\u548c\u6c27\u6c14\u7684\u6027\u8d28","category":9,"imgUrl":"https:\/\/imgcdn.nobook.com\/img\/20220802\/2022080262e88c98b7f15.png","contents":"9c60050ed03324f9b0e43359d540e0cd","keywords":"[\"jiaregaomengsuanjiazhiquyangqiheyangqidexingzhi\",\"jrgmsjzqyqhyqdxz\",\"\u52a0\u70ed\u9ad8\u9530\u9178\u94be\u5236\u53d6\u6c27\u6c14\u548c\u6c27\u6c14\u7684\u6027\u8d28\",\"\",\"aa\"]","vip":0,"actionType":100,"chenmEquation":"2KMnO4=\u25b3=K2MnO4+MnO2+O2_g","sort":346,"knowledge_points_sort":25,"url":null,"dataVersion":10000,"subjectId":2,"gradePhase":2,"operate":{"id":2,"experiment_id":346,"hits_count":45103,"play_count":0,"share_count":424,"likes_count":12,"created_at":1654671880,"updated_at":1668032819,"auto_update_at":"2022-11-10 06:26:59"},"tag":[{"id":2,"name":"hot","colour":"#E7F216"}],"operatelog":[],"relation":{"id":13675,"experimentId":346,"gradePhase":2,"subjectId":2,"versionId":1,"textbookId":7,"chapterId":42,"sectionId":169,"rank":3,"auto_update_at":"2022-11-07 15:48:41"}},{"id":474,"title":"\u5b9e\u9a8c\u5ba4\u5236\u53d6\u4e8c\u6c27\u5316\u78b3\u4e4b\u957f\u9888\u6f0f\u6597","category":9,"imgUrl":"https:\/\/imgcdn.nobook.com\/chem\/20210917\/6e46e3f1d79e5da84de89b29d47bc5fe.png","contents":"a23a286082cd4bfd3bb3ee3668eacbab","keywords":"[\"shiyanshizhiqueryanghuatanzhichangjingloudou\",\"syszqeyhtzcjld\",\"\u5b9e\u9a8c\u5ba4\u5236\u53d6\u4e8c\u6c27\u5316\u78b3\u4e4b\u957f\u9888\u6f0f\u6597\",null]","vip":0,"actionType":100,"chenmEquation":"CaCO3+2HCl==CaCl2+H2O+CO2_g","sort":474,"knowledge_points_sort":13,"url":null,"dataVersion":30400,"subjectId":2,"gradePhase":2,"operate":{"id":39,"experiment_id":474,"hits_count":1326,"play_count":0,"share_count":26,"likes_count":1,"created_at":1655273342,"updated_at":1668008172,"auto_update_at":"2022-11-09 23:36:12"},"tag":[{"id":2,"name":"hot","colour":"#E7F216"}],"operatelog":[],"relation":{"id":14990,"experimentId":474,"gradePhase":2,"subjectId":2,"versionId":1,"textbookId":7,"chapterId":46,"sectionId":183,"rank":4,"auto_update_at":"2022-11-07 16:01:57"}},{"id":472,"title":"\u4e8c\u6c27\u5316\u78b3\u4e0e\u6c34\u7684\u53cd\u5e94","category":9,"imgUrl":"https:\/\/imgcdn.nobook.com\/chem\/20210917\/43bfe0ebb55ae8364c9f469fbc78abfd.png","contents":"1f8a041143b2d679eb3fa465e4ba50d5","keywords":"[\"eryanghuatanyushuidefanying\",\"eyhtysdfy\",\"\u4e8c\u6c27\u5316\u78b3\u4e0e\u6c34\u7684\u53cd\u5e94\",null]","vip":0,"actionType":100,"chenmEquation":"H2O+CO2==H2CO3\nH2CO3==H2O+CO2_g","sort":472,"knowledge_points_sort":75,"url":null,"dataVersion":30400,"subjectId":2,"gradePhase":2,"operate":{"id":680,"experiment_id":472,"hits_count":1061,"play_count":0,"share_count":15,"likes_count":0,"created_at":1656254611,"updated_at":1668010787,"auto_update_at":"2022-11-10 00:19:47"},"tag":[{"id":2,"name":"hot","colour":"#E7F216"}],"operatelog":[],"relation":{"id":14991,"experimentId":472,"gradePhase":2,"subjectId":2,"versionId":1,"textbookId":7,"chapterId":46,"sectionId":182,"rank":5,"auto_update_at":"2022-11-07 16:02:09"}},{"id":476,"title":"\u6728\u70ad\u8fd8\u539f\u6c27\u5316\u94dc","category":9,"imgUrl":"https:\/\/imgcdn.nobook.com\/chem\/20210917\/88a5655a6ea69a39b93cc45779e65389.png","contents":"d841f0c9d84a6c95b46526238ca367ce","keywords":"[\"mutanhuaiyuanyanghuatongshiyan\",\"mthyyhtsy\",\"mutanhuaiyuanyanghuatong\",\"mthyyht\",\"\u6728\u70ad\u8fd8\u539f\u6c27\u5316\u94dc\u5b9e\u9a8c\",\"\u6728\u70ad\u8fd8\u539f\u6c27\u5316\u94dc\",null]","vip":0,"actionType":100,"chenmEquation":"2CuO+C=\u9ad8\u6e29=2Cu+CO2_g","sort":476,"knowledge_points_sort":69,"url":null,"dataVersion":30400,"subjectId":2,"gradePhase":2,"operate":{"id":273,"experiment_id":476,"hits_count":945,"play_count":0,"share_count":13,"likes_count":0,"created_at":1655862694,"updated_at":1668010201,"auto_update_at":"2022-11-10 00:10:01"},"tag":[{"id":2,"name":"hot","colour":"#E7F216"}],"operatelog":[],"relation":{"id":14992,"experimentId":476,"gradePhase":2,"subjectId":2,"versionId":1,"textbookId":7,"chapterId":46,"sectionId":180,"rank":6,"auto_update_at":"2022-11-07 16:02:41"}},{"id":459,"title":"\u4e00\u6c27\u5316\u78b3\u8fd8\u539f\u6c27\u5316\u94dc","category":9,"imgUrl":"https:\/\/imgcdn.nobook.com\/chem\/20210917\/096d8adfca31f88bbfa9a6244bbf3a75.png","contents":"82d105cfd64f7297d6d44b7c2ce7f10b","keywords":"[\"yiyanghuatanhuaiyuanyanghuatong\",\"yyhthyyht\",\"\u4e00\u6c27\u5316\u78b3\u8fd8\u539f\u6c27\u5316\u94dc\",null]","vip":0,"actionType":100,"chenmEquation":"CuO+CO=\u25b3=Cu+CO2","sort":459,"knowledge_points_sort":74,"url":"","dataVersion":0,"subjectId":2,"gradePhase":2,"operate":{"id":426,"experiment_id":459,"hits_count":17052,"play_count":0,"share_count":110,"likes_count":6,"created_at":1655895351,"updated_at":1668003786,"auto_update_at":"2022-11-09 22:23:06"},"tag":[{"id":2,"name":"hot","colour":"#E7F216"}],"operatelog":[],"relation":{"id":8169,"experimentId":459,"gradePhase":2,"subjectId":2,"versionId":1,"textbookId":7,"chapterId":46,"sectionId":182,"rank":6,"auto_update_at":"2022-11-07 16:02:20"}},{"id":454,"title":"\u94c1\u4e1d\u5728\u6c27\u6c14\u91cc\u71c3\u70e7","category":9,"imgUrl":"https:\/\/imgcdn.nobook.com\/chem\/20210917\/22a4f76dd8bfd5c72344ee76b410f73f.png","contents":"428856e82364d705a8acb2bf4d34c42e","keywords":"[\"tiesizaiyangqiliranshao\",\"tszyqlrs\",\"\u94c1\u4e1d\u5728\u6c27\u6c14\u91cc\u71c3\u70e7\",\"\",null]","vip":0,"actionType":100,"chenmEquation":"3Fe+2O2=\u70b9\u71c3=Fe3O4","sort":454,"knowledge_points_sort":22,"url":"","dataVersion":0,"subjectId":2,"gradePhase":2,"operate":{"id":35,"experiment_id":454,"hits_count":21377,"play_count":0,"share_count":81,"likes_count":8,"created_at":1655273080,"updated_at":1668009310,"auto_update_at":"2022-11-09 23:55:10"},"tag":[{"id":2,"name":"hot","colour":"#E7F216"}],"operatelog":[],"relation":{"id":10158,"experimentId":454,"gradePhase":2,"subjectId":2,"versionId":1,"textbookId":7,"chapterId":42,"sectionId":167,"rank":7,"auto_update_at":"2022-11-07 16:02:41"}},{"id":369,"title":"\u6d53\u786b\u9178\u7684\u7a00\u91ca","category":9,"imgUrl":"https:\/\/imgcdn.nobook.com\/chem\/20210917\/fa7331bc3eeae27190fd59368f911e14.png","contents":"cfe6cf3532d495497864eda15203350d","keywords":"[\"nongliusuandexishi\",\"nlsdxs\",\"\u6d53\u786b\u9178\u7684\u7a00\u91ca\",null]","vip":0,"actionType":100,"chenmEquation":null,"sort":369,"knowledge_points_sort":48,"url":"","dataVersion":0,"subjectId":2,"gradePhase":2,"operate":{"id":33,"experiment_id":369,"hits_count":9716,"play_count":0,"share_count":37,"likes_count":5,"created_at":1655273069,"updated_at":1668006324,"auto_update_at":"2022-11-09 23:05:24"},"tag":[{"id":2,"name":"hot","colour":"#E7F216"}],"operatelog":[],"relation":{"id":8172,"experimentId":369,"gradePhase":2,"subjectId":2,"versionId":1,"textbookId":8,"chapterId":50,"sectionId":195,"rank":8,"auto_update_at":"2022-11-07 16:02:41"}},{"id":484,"title":"\u7c89\u5c18\u7206\u70b8\u5b9e\u9a8c","category":9,"imgUrl":"https:\/\/imgcdn.nobook.com\/chem\/20210917\/8c576321ff9b9825dbb789e49b8a325a.png","contents":"0d1d0a1e39105f4deb54bf34112e8e2a","keywords":"[\"fenchenbaozhashiyan\",\"fcbzsy\",\"\u7c89\u5c18\u7206\u70b8\u5b9e\u9a8c\"]","vip":0,"actionType":100,"chenmEquation":null,"sort":484,"knowledge_points_sort":115,"url":"","dataVersion":0,"subjectId":2,"gradePhase":2,"operate":{"id":36,"experiment_id":484,"hits_count":7758,"play_count":0,"share_count":39,"likes_count":9,"created_at":1655273085,"updated_at":1668009933,"auto_update_at":"2022-11-10 00:05:33"},"tag":[{"id":2,"name":"hot","colour":"#E7F216"}],"operatelog":[],"relation":{"id":497,"experimentId":484,"gradePhase":2,"subjectId":2,"versionId":1,"textbookId":7,"chapterId":47,"sectionId":184,"rank":9,"auto_update_at":"2022-11-07 15:57:14"}},{"id":2721,"title":"\u5316\u5b66\u65b9\u7a0b\u5f0f\u7684\u914d\u5e73","category":2001,"imgUrl":"https:\/\/imgcdn.nobook.com\/img\/20220428\/20220428626a648178609.png","contents":"principle_BalanceEquation","keywords":"[\"huaxuefangchengshidepeiping\",\"hxfcsdpp\",\"\",\"\u5316\u5b66\u65b9\u7a0b\u5f0f\u7684\u914d\u5e73\",\"balancing\"]","vip":0,"actionType":500,"chenmEquation":null,"sort":2721,"knowledge_points_sort":0,"url":null,"dataVersion":20702,"subjectId":2,"gradePhase":2,"operate":{"id":25,"experiment_id":2721,"hits_count":1867,"play_count":0,"share_count":40,"likes_count":5,"created_at":1655208857,"updated_at":1667995326,"auto_update_at":"2022-11-09 20:02:06"},"tag":[{"id":1,"name":"new","colour":"#C42C2C"}],"operatelog":[],"relation":{"id":11762,"experimentId":2721,"gradePhase":2,"subjectId":2,"versionId":1,"textbookId":7,"chapterId":45,"sectionId":178,"rank":11,"auto_update_at":"2022-11-07 15:58:04"}},{"id":2720,"title":"\u539f\u5b50\u7684\u7ed3\u6784","category":2001,"imgUrl":"https:\/\/imgcdn.nobook.com\/img\/20220218\/20220218620f47168cba9.png","contents":"principle_AtomicStructure","keywords":"[\"yuanzidejiegou\",\"yzdjg\",\"\",\"\u539f\u5b50\u7684\u7ed3\u6784\",\"atom\"]","vip":0,"actionType":500,"chenmEquation":null,"sort":2720,"knowledge_points_sort":97,"url":"","dataVersion":0,"subjectId":2,"gradePhase":0,"operate":{"id":51,"experiment_id":2720,"hits_count":5120,"play_count":0,"share_count":77,"likes_count":7,"created_at":1655273519,"updated_at":1668002367,"auto_update_at":"2022-11-09 21:59:27"},"tag":[],"operatelog":[],"relation":{"id":11032,"experimentId":2720,"gradePhase":2,"subjectId":2,"versionId":1,"textbookId":7,"chapterId":43,"sectionId":171,"rank":12,"auto_update_at":"2022-11-07 15:58:04"}},{"id":2917,"title":"\u7b2c\u56db\u5355\u5143 \u8bfe\u98982 \u6c34\u7684\u51c0\u5316","category":9,"imgUrl":"https:\/\/imgcdn.nobook.com\/img\/20220804\/2022080462eb9b8128b03.jpg","contents":2287,"keywords":"[\"disidanyuan-keti2-shuidejinghua\",\"dsdy-kt2-sdjh\",\"\",\"\u7b2c\u56db\u5355\u5143 \u8bfe\u98982 \u6c34\u7684\u51c0\u5316\",\"aa\"]","vip":0,"actionType":200,"chenmEquation":null,"sort":2917,"knowledge_points_sort":2917,"url":null,"dataVersion":30004,"subjectId":2,"gradePhase":2,"operate":{"id":1262,"experiment_id":2917,"hits_count":1411,"play_count":0,"share_count":0,"likes_count":0,"created_at":1659616453,"updated_at":1668005267,"auto_update_at":"2022-11-09 22:47:47"},"tag":[{"id":1,"name":"new","colour":"#C42C2C"}],"operatelog":[],"relation":{"id":14161,"experimentId":2917,"gradePhase":2,"subjectId":2,"versionId":1,"textbookId":7,"chapterId":44,"sectionId":174,"rank":13,"auto_update_at":"2022-11-07 15:58:04"}},{"id":2918,"title":"\u7b2c\u56db\u5355\u5143 \u8bfe\u98983 \u6c34\u7684\u7ec4\u6210","category":9,"imgUrl":"https:\/\/imgcdn.nobook.com\/img\/20220804\/2022080462eb9b6ac2430.jpg","contents":2321,"keywords":"[\"disidanyuan-keti3-shuidezucheng\",\"dsdy-kt3-sdzc\",\"\",\"\u7b2c\u56db\u5355\u5143 \u8bfe\u98983 \u6c34\u7684\u7ec4\u6210\",\"aa\"]","vip":0,"actionType":200,"chenmEquation":null,"sort":2918,"knowledge_points_sort":2918,"url":null,"dataVersion":30004,"subjectId":2,"gradePhase":2,"operate":{"id":1263,"experiment_id":2918,"hits_count":831,"play_count":0,"share_count":0,"likes_count":0,"created_at":1659616467,"updated_at":1667995586,"auto_update_at":"2022-11-09 20:06:26"},"tag":[{"id":1,"name":"new","colour":"#C42C2C"}],"operatelog":[],"relation":{"id":14162,"experimentId":2918,"gradePhase":2,"subjectId":2,"versionId":1,"textbookId":7,"chapterId":44,"sectionId":175,"rank":14,"auto_update_at":"2022-11-07 15:58:04"}},{"id":2925,"title":"\u7b2c\u4e09\u5355\u5143 \u8bfe\u98981 \u5206\u5b50\u548c\u539f\u5b50","category":9,"imgUrl":"https:\/\/imgcdn.nobook.com\/img\/20220908\/2022090863195910d3ff5.jpg","contents":4292,"keywords":"[\"disandanyuan-keti1-fenziheyuanzi\",\"dsdy-kt1-fzhyz\",\"\",\"\u7b2c\u4e09\u5355\u5143 \u8bfe\u98981 \u5206\u5b50\u548c\u539f\u5b50\",\"aa\"]","vip":0,"actionType":200,"chenmEquation":null,"sort":2925,"knowledge_points_sort":2925,"url":null,"dataVersion":30200,"subjectId":2,"gradePhase":2,"operate":{"id":1278,"experiment_id":2925,"hits_count":524,"play_count":0,"share_count":0,"likes_count":0,"created_at":1662810653,"updated_at":1668004059,"auto_update_at":"2022-11-09 22:27:39"},"tag":[{"id":1,"name":"new","colour":"#C42C2C"}],"operatelog":[],"relation":{"id":14163,"experimentId":2925,"gradePhase":2,"subjectId":2,"versionId":1,"textbookId":7,"chapterId":43,"sectionId":170,"rank":15,"auto_update_at":"2022-11-07 15:58:04"}},{"id":2929,"title":"\u7b2c\u4e94\u5355\u5143 \u8bfe\u98981 \u8d28\u91cf\u5b88\u6052\u5b9a\u5f8b","category":9,"imgUrl":"https:\/\/imgcdn.nobook.com\/img\/20220908\/20220908631958db16e30.jpg","contents":4420,"keywords":"[\"diwudanyuan-keti1-zhiliangshouhengdinglv\",\"dwdy-kt1-zlshdl\",\"\",\"\u7b2c\u4e94\u5355\u5143 \u8bfe\u98981 \u8d28\u91cf\u5b88\u6052\u5b9a\u5f8b\",\"aa\"]","vip":0,"actionType":200,"chenmEquation":null,"sort":2929,"knowledge_points_sort":2929,"url":null,"dataVersion":30200,"subjectId":2,"gradePhase":2,"operate":{"id":1277,"experiment_id":2929,"hits_count":690,"play_count":0,"share_count":0,"likes_count":0,"created_at":1662631739,"updated_at":1668003521,"auto_update_at":"2022-11-09 22:18:41"},"tag":[{"id":1,"name":"new","colour":"#C42C2C"}],"operatelog":[],"relation":{"id":14164,"experimentId":2929,"gradePhase":2,"subjectId":2,"versionId":1,"textbookId":7,"chapterId":45,"sectionId":177,"rank":16,"auto_update_at":"2022-11-07 15:58:04"}},{"id":2960,"title":"\u7b2c\u516d\u5355\u5143 \u8bfe\u98981 \u91d1\u521a\u77f3\u3001\u77f3\u58a8\u548cC60","category":9,"imgUrl":"https:\/\/imgcdn.nobook.com\/img\/20221018\/20221018634e5e7aac6b5.jpg","contents":13401,"keywords":"[\"diliudanyuan-keti1-jingangshishimoheC60\",\"dldy-kt1-jgssmhC60\",\"jingangshi\",\"jgs\",\"\",\"\u7b2c\u516d\u5355\u5143 \u8bfe\u98981 \u91d1\u521a\u77f3\u3001\u77f3\u58a8\u548cC60\",\"\u91d1\u521a\u77f3\"]","vip":0,"actionType":200,"chenmEquation":null,"sort":2960,"knowledge_points_sort":2960,"url":null,"dataVersion":30300,"subjectId":2,"gradePhase":2,"operate":{"id":1301,"experiment_id":2960,"hits_count":416,"play_count":0,"share_count":0,"likes_count":0,"created_at":1666084346,"updated_at":1668004436,"auto_update_at":"2022-11-09 22:33:56"},"tag":[{"id":1,"name":"new","colour":"#C42C2C"}],"operatelog":[],"relation":{"id":14227,"experimentId":2960,"gradePhase":2,"subjectId":2,"versionId":1,"textbookId":7,"chapterId":46,"sectionId":180,"rank":17,"auto_update_at":"2022-11-07 15:58:04"}},{"id":2922,"title":"\u63a2\u7a76\u4e8c\u6c27\u5316\u9530\u5728\u53cd\u5e94\u524d\u540e\u6027\u8d28\u7684\u53d8\u5316","category":9,"imgUrl":"https:\/\/imgcdn.nobook.com\/img\/20220830\/20220830630dcfbf542e1.png","contents":"bfd5147e-37ae-423e-bfeb-bb4af9d2c460","keywords":"[\"tanjiueryanghuamengzaifanyingqianhouxingzhidebianhua\",\"tjeyhmzfyqhxzdbh\",\"\",\"\u63a2\u7a76\u4e8c\u6c27\u5316\u9530\u5728\u53cd\u5e94\u524d\u540e\u6027\u8d28\u7684\u53d8\u5316\",\"aa\"]","vip":0,"actionType":100,"chenmEquation":null,"sort":2922,"knowledge_points_sort":2922,"url":null,"dataVersion":30200,"subjectId":2,"gradePhase":2,"operate":{"id":1269,"experiment_id":2922,"hits_count":1085,"play_count":0,"share_count":14,"likes_count":1,"created_at":1661956237,"updated_at":1668002813,"auto_update_at":"2022-11-09 22:06:53"},"tag":[{"id":1,"name":"new","colour":"#C42C2C"}],"operatelog":[],"relation":{"id":13760,"experimentId":2922,"gradePhase":2,"subjectId":2,"versionId":1,"textbookId":7,"chapterId":42,"sectionId":168,"rank":18,"auto_update_at":"2022-11-07 15:58:04"}},{"id":2921,"title":"\u63a2\u7a76\u4e8c\u6c27\u5316\u9530\u5bf9\u8fc7\u6c27\u5316\u6c22\u5206\u89e3\u7684\u5f71\u54cd","category":9,"imgUrl":"https:\/\/imgcdn.nobook.com\/img\/20220830\/20220830630dcef8e7d60.png","contents":"895e85270071cd59ef02b5c926bd942d","keywords":"[\"tanjiueryanghuamengduiguoyanghuaqingfenjiedeyingxiang\",\"tjeyhmdgyhqfjdyx\",\"\",\"\u63a2\u7a76\u4e8c\u6c27\u5316\u9530\u5bf9\u8fc7\u6c27\u5316\u6c22\u5206\u89e3\u7684\u5f71\u54cd\",\"aa\"]","vip":0,"actionType":100,"chenmEquation":null,"sort":2921,"knowledge_points_sort":2921,"url":null,"dataVersion":30200,"subjectId":2,"gradePhase":2,"operate":{"id":1270,"experiment_id":2921,"hits_count":913,"play_count":0,"share_count":6,"likes_count":1,"created_at":1661989032,"updated_at":1668003291,"auto_update_at":"2022-11-09 22:14:51"},"tag":[{"id":1,"name":"new","colour":"#C42C2C"}],"operatelog":[],"relation":{"id":13759,"experimentId":2921,"gradePhase":2,"subjectId":2,"versionId":1,"textbookId":7,"chapterId":42,"sectionId":168,"rank":19,"auto_update_at":"2022-11-07 15:58:04"}},{"id":371,"title":"\u786b\u9178\u94dc\u6eb6\u6db2\u548c\u6c22\u6c27\u5316\u94a0\u6eb6\u6db2\u7684\u53cd\u5e94","category":9,"imgUrl":"https:\/\/imgcdn.nobook.com\/img\/20211013\/20211013616654c6c5e23.png","contents":"2875480d39bd49767045089678194104","keywords":"[\"liusuantongrongyeheqingyanghuanarongyedefanying\",\"lstryhqyhnrydfy\",\"\u786b\u9178\u94dc\u6eb6\u6db2\u548c\u6c22\u6c27\u5316\u94a0\u6eb6\u6db2\u7684\u53cd\u5e94\",\"\",null]","vip":0,"actionType":100,"chenmEquation":"CuSO4+2NaOH==Cu(OH)2_s+Na2SO4","sort":371,"knowledge_points_sort":102,"url":"","dataVersion":0,"subjectId":2,"gradePhase":2,"operate":{"id":183,"experiment_id":371,"hits_count":1669,"play_count":0,"share_count":16,"likes_count":2,"created_at":1655723863,"updated_at":1668001202,"auto_update_at":"2022-11-09 21:40:03"},"tag":[],"operatelog":[],"relation":{"id":10745,"experimentId":371,"gradePhase":2,"subjectId":2,"versionId":1,"textbookId":7,"chapterId":41,"sectionId":163,"rank":20,"auto_update_at":"2022-11-07 15:58:04"}},{"id":2128,"title":"\u68c0\u67e5\u88c5\u7f6e\u6c14\u5bc6\u6027","category":9,"imgUrl":"https:\/\/imgcdn.nobook.com\/chem\/20210917\/201904245cbfcdd30813c.png","contents":"a8a9fc52373e36aa014ab5d5ec76e810","keywords":"[\"jianchazhuangzhiqimixing\",\"jczzqmx\",\"\",\"\u68c0\u67e5\u88c5\u7f6e\u6c14\u5bc6\u6027\"]","vip":0,"actionType":100,"chenmEquation":null,"sort":2128,"knowledge_points_sort":12,"url":"","dataVersion":0,"subjectId":2,"gradePhase":2,"operate":{"id":38,"experiment_id":2128,"hits_count":1470,"play_count":0,"share_count":15,"likes_count":2,"created_at":1655273332,"updated_at":1668005038,"auto_update_at":"2022-11-09 22:43:58"},"tag":[],"operatelog":[],"relation":{"id":5744,"experimentId":2128,"gradePhase":2,"subjectId":2,"versionId":1,"textbookId":7,"chapterId":41,"sectionId":165,"rank":21,"auto_update_at":"2022-11-07 15:58:04"}},{"id":373,"title":"\u80c6\u77fe\u7684\u7814\u788e","category":9,"imgUrl":"https:\/\/imgcdn.nobook.com\/chem\/20210917\/b9fc3a0ba545e218700eec98d19e3f5d.png","contents":"aa8620862cde67184b211d063370433a","keywords":"[\"danfandeyansui\",\"dfdys\",\"\u80c6\u77fe\u7684\u7814\u788e\"]","vip":0,"actionType":100,"chenmEquation":null,"sort":373,"knowledge_points_sort":104,"url":"","dataVersion":0,"subjectId":2,"gradePhase":2,"operate":{"id":27,"experiment_id":373,"hits_count":1526,"play_count":0,"share_count":8,"likes_count":2,"created_at":1655260422,"updated_at":1668000152,"auto_update_at":"2022-11-09 21:22:32"},"tag":[],"operatelog":[],"relation":{"id":6690,"experimentId":373,"gradePhase":2,"subjectId":2,"versionId":1,"textbookId":7,"chapterId":41,"sectionId":163,"rank":22,"auto_update_at":"2022-11-07 15:58:04"}},{"id":370,"title":"\u6c34\u7684\u6cb8\u817e","category":9,"imgUrl":"https:\/\/imgcdn.nobook.com\/chem\/20210917\/23c6043e51384a570b535d1a7ca14bcd.png","contents":"307afb4a857459ef805af79f0a7198c6","keywords":"[\"shuidefeiteng\",\"sdft\",\"\u6c34\u7684\u6cb8\u817e\",null]","vip":0,"actionType":100,"chenmEquation":null,"sort":370,"knowledge_points_sort":101,"url":"","dataVersion":0,"subjectId":2,"gradePhase":2,"operate":{"id":263,"experiment_id":370,"hits_count":6229,"play_count":0,"share_count":37,"likes_count":4,"created_at":1655861595,"updated_at":1668000840,"auto_update_at":"2022-11-09 21:34:00"},"tag":[],"operatelog":[],"relation":{"id":8161,"experimentId":370,"gradePhase":2,"subjectId":2,"versionId":1,"textbookId":7,"chapterId":41,"sectionId":163,"rank":23,"auto_update_at":"2022-11-07 15:58:04"}},{"id":2676,"title":"\u5bf9\u8721\u70db\u71c3\u70e7\u7684\u63a2\u7a76","category":9,"imgUrl":"https:\/\/imgcdn.nobook.com\/chem\/20210917\/20210513609cc227a6958.png","contents":"8cc323a23e4de805c9835f6bc646736a","keywords":"[\"duilazhuranshaodetanjiu\",\"dlzrsdtj\",\"\",\"\u5bf9\u8721\u70db\u71c3\u70e7\u7684\u63a2\u7a76\",\"candle\"]","vip":0,"actionType":100,"chenmEquation":null,"sort":2676,"knowledge_points_sort":16,"url":"","dataVersion":0,"subjectId":2,"gradePhase":2,"operate":{"id":41,"experiment_id":2676,"hits_count":1484,"play_count":0,"share_count":21,"likes_count":1,"created_at":1655273366,"updated_at":1668000908,"auto_update_at":"2022-11-09 21:35:09"},"tag":[],"operatelog":[],"relation":{"id":10152,"experimentId":2676,"gradePhase":2,"subjectId":2,"versionId":1,"textbookId":7,"chapterId":41,"sectionId":164,"rank":27,"auto_update_at":"2022-11-07 15:58:04"}},{"id":2675,"title":"\u5927\u7406\u77f3\u4e0e\u7a00\u76d0\u9178\u53cd\u5e94","category":9,"imgUrl":"https:\/\/imgcdn.nobook.com\/chem\/20210917\/202105106098f9fb4357b.png","contents":"2f56db3d7714d1a88c33338cb48f5ca0","keywords":"[\"dalishiyuxiyansuan\",\"dlsyxys\",\"dalishiyuxiyansuanfanying\",\"dlsyxysfy\",\"\u5927\u7406\u77f3\u4e0e\u7a00\u76d0\u9178\",\"\u5927\u7406\u77f3\u4e0e\u7a00\u76d0\u9178\u53cd\u5e94\",\"CaCO3\"]","vip":0,"actionType":100,"chenmEquation":"CaCO3+2HCl==CaCl2+H2O+CO2_g\nCO2+Ca(OH)2==CaCO3_s+H2O","sort":2675,"knowledge_points_sort":105,"url":"","dataVersion":0,"subjectId":2,"gradePhase":2,"operate":{"id":616,"experiment_id":2675,"hits_count":1156,"play_count":0,"share_count":15,"likes_count":0,"created_at":1656151131,"updated_at":1668002726,"auto_update_at":"2022-11-09 22:05:26"},"tag":[],"operatelog":[],"relation":{"id":10185,"experimentId":2675,"gradePhase":2,"subjectId":2,"versionId":1,"textbookId":7,"chapterId":41,"sectionId":163,"rank":28,"auto_update_at":"2022-11-07 15:58:04"}},{"id":2680,"title":"\u6f84\u6e05\u77f3\u7070\u6c34\u4e0e\u915a\u915e","category":9,"imgUrl":"https:\/\/imgcdn.nobook.com\/chem\/20210917\/2021052660ae104b0ffe6.jpg","contents":"6c020f7f854bb25af12209de7443502b","keywords":"[\"chengqingdeshihuishuiyufentai\",\"cqdshsyft\",\"chengqingshihuishuiyufentai\",\"cqshsyft\",\"\",\"\u6f84\u6e05\u7684\u77f3\u7070\u6c34\u4e0e\u915a\u915e\",\"aa\",\"\u6f84\u6e05\u77f3\u7070\u6c34\u4e0e\u915a\u915e\"]","vip":0,"actionType":100,"chenmEquation":null,"sort":2680,"knowledge_points_sort":107,"url":"","dataVersion":0,"subjectId":2,"gradePhase":2,"operate":{"id":184,"experiment_id":2680,"hits_count":549,"play_count":0,"share_count":12,"likes_count":1,"created_at":1655724721,"updated_at":1667998555,"auto_update_at":"2022-11-09 20:55:55"},"tag":[],"operatelog":[],"relation":{"id":10214,"experimentId":2680,"gradePhase":2,"subjectId":2,"versionId":1,"textbookId":7,"chapterId":41,"sectionId":165,"rank":29,"auto_update_at":"2022-11-07 15:58:04"}},{"id":485,"title":"\u4e00\u6c27\u5316\u78b3\u8fd8\u539f\u6c27\u5316\u94c1","category":9,"imgUrl":"https:\/\/imgcdn.nobook.com\/chem\/20210917\/1975a6be3a27110a565c53cf2320212d.png","contents":"4d815e813149becf40b666cc0519aa89","keywords":"[\"yiyanghuatanhuaiyuanyanghuatie\",\"yyhthyyht\",\"\u4e00\u6c27\u5316\u78b3\u8fd8\u539f\u6c27\u5316\u94c1\",\"\",null]","vip":0,"actionType":100,"chenmEquation":"Fe2O3+3CO=\u9ad8\u6e29=2Fe+3CO2","sort":485,"knowledge_points_sort":45,"url":"","dataVersion":0,"subjectId":2,"gradePhase":2,"operate":{"id":32,"experiment_id":485,"hits_count":1836,"play_count":0,"share_count":18,"likes_count":2,"created_at":1655273064,"updated_at":1668008944,"auto_update_at":"2022-11-09 23:49:04"},"tag":[],"operatelog":[],"relation":{"id":10960,"experimentId":485,"gradePhase":2,"subjectId":2,"versionId":1,"textbookId":8,"chapterId":48,"sectionId":189,"rank":30,"auto_update_at":"2022-11-07 15:58:04"}},{"id":491,"title":"\u914d\u5236\u4e24\u79cd\u8d28\u91cf\u5206\u6570\u4e0d\u540c\u7684\u6c2f\u5316\u94a0\u6eb6\u6db2","category":9,"imgUrl":"https:\/\/imgcdn.nobook.com\/chem\/20210917\/59284f25a7e2f05fcff683fb6466e4ae.png","contents":"2e0d9f67dc7c1c672e5518f940a9cdd6","keywords":"[\"peizhiliangzhongzhiliangfenshubutongdelvhuanarongye\",\"pzlzzlfsbtdlhnry\",\"\u914d\u5236\u4e24\u79cd\u8d28\u91cf\u5206\u6570\u4e0d\u540c\u7684\u6c2f\u5316\u94a0\u6eb6\u6db2\"]","vip":0,"actionType":100,"chenmEquation":null,"sort":491,"knowledge_points_sort":19,"url":"","dataVersion":0,"subjectId":2,"gradePhase":2,"operate":{"id":45,"experiment_id":491,"hits_count":371,"play_count":0,"share_count":7,"likes_count":0,"created_at":1655273383,"updated_at":1667983416,"auto_update_at":"2022-11-09 16:43:36"},"tag":[],"operatelog":[],"relation":{"id":487,"experimentId":491,"gradePhase":2,"subjectId":2,"versionId":1,"textbookId":8,"chapterId":49,"sectionId":209,"rank":31,"auto_update_at":"2022-11-07 15:58:04"}},{"id":372,"title":"\u89c2\u5bdf\u6c27\u6c14\u548c\u4e8c\u6c27\u5316\u78b3\u7684\u6027\u8d28\u7684\u5b9e\u9a8c","category":9,"imgUrl":"https:\/\/imgcdn.nobook.com\/chem\/20210917\/8c8b7b16b6688278b9217475b255f551.png","contents":"a9403b703a2bc70c9ecff99af91ffc06","keywords":"[\"guanchayangqiheeryanghuatandexingzhideshiyan\",\"gcyqheyhtdxzdsy\",\"\u89c2\u5bdf\u6c27\u6c14\u548c\u4e8c\u6c27\u5316\u78b3\u7684\u6027\u8d28\u7684\u5b9e\u9a8c\",null]","vip":0,"actionType":100,"chenmEquation":null,"sort":372,"knowledge_points_sort":103,"url":"","dataVersion":0,"subjectId":2,"gradePhase":2,"operate":{"id":229,"experiment_id":372,"hits_count":1230,"play_count":0,"share_count":12,"likes_count":1,"created_at":1655830107,"updated_at":1668000679,"auto_update_at":"2022-11-09 21:31:19"},"tag":[],"operatelog":[],"relation":{"id":10593,"experimentId":372,"gradePhase":2,"subjectId":2,"versionId":1,"textbookId":7,"chapterId":42,"sectionId":167,"rank":32,"auto_update_at":"2022-11-07 15:58:04"}},{"id":489,"title":"\u4e09\u79cd\u4e0d\u540c\u6d53\u5ea6\u7684\u786b\u9178\u94dc\u6eb6\u6db2\u7684\u914d\u5236","category":9,"imgUrl":"https:\/\/imgcdn.nobook.com\/chem\/20210917\/50b2e2b99d589041370060306b1c6219.png","contents":"09448c2ec0aa40f395419824d539bbc6","keywords":"[\"sanzhongbutongnongdudeliusuantongrongyedepeizhi\",\"szbtnddlstrydpz\",\"\u4e09\u79cd\u4e0d\u540c\u6d53\u5ea6\u7684\u786b\u9178\u94dc\u6eb6\u6db2\u7684\u914d\u5236\"]","vip":0,"actionType":100,"chenmEquation":null,"sort":489,"knowledge_points_sort":41,"url":"","dataVersion":0,"subjectId":2,"gradePhase":2,"operate":{"id":692,"experiment_id":489,"hits_count":271,"play_count":0,"share_count":6,"likes_count":1,"created_at":1656297638,"updated_at":1667993296,"auto_update_at":"2022-11-09 19:28:16"},"tag":[],"operatelog":[],"relation":{"id":491,"experimentId":489,"gradePhase":2,"subjectId":2,"versionId":1,"textbookId":8,"chapterId":49,"sectionId":209,"rank":33,"auto_update_at":"2022-11-07 15:58:04"}},{"id":466,"title":"\u8fc7\u6ee4","category":9,"imgUrl":"https:\/\/imgcdn.nobook.com\/img\/20220801\/2022080162e7bd7e9a3c6.png","contents":"bf8ef48e3bfad2afec72a6684222c6d3","keywords":"[\"guolv\",\"gl\",\"\u8fc7\u6ee4\",\"\",null]","vip":0,"actionType":100,"chenmEquation":null,"sort":466,"knowledge_points_sort":30,"url":null,"dataVersion":30001,"subjectId":2,"gradePhase":2,"operate":{"id":264,"experiment_id":466,"hits_count":2300,"play_count":0,"share_count":31,"likes_count":1,"created_at":1655861730,"updated_at":1668032955,"auto_update_at":"2022-11-10 06:29:15"},"tag":[],"operatelog":[],"relation":{"id":13646,"experimentId":466,"gradePhase":2,"subjectId":2,"versionId":1,"textbookId":7,"chapterId":44,"sectionId":174,"rank":34,"auto_update_at":"2022-11-07 15:58:04"}},{"id":488,"title":"\u7898\u548c\u9ad8\u9530\u9178\u94be\u7684\u6eb6\u89e3\u6027\u6bd4\u8f83","category":9,"imgUrl":"https:\/\/imgcdn.nobook.com\/chem\/20210917\/1667ec71f7673ef3603fb7f03abfaca2.png","contents":"1e4039235b6688c150b7d6d99445df6d","keywords":"[\"dianhegaomengsuanjiaderongjiexingbijiao\",\"dhgmsjdrjxbj\",\"\u7898\u548c\u9ad8\u9530\u9178\u94be\u7684\u6eb6\u89e3\u6027\u6bd4\u8f83\"]","vip":0,"actionType":100,"chenmEquation":null,"sort":488,"knowledge_points_sort":35,"url":"","dataVersion":0,"subjectId":2,"gradePhase":2,"operate":{"id":250,"experiment_id":488,"hits_count":392,"play_count":0,"share_count":8,"likes_count":1,"created_at":1655860191,"updated_at":1667992883,"auto_update_at":"2022-11-09 19:21:23"},"tag":[],"operatelog":[],"relation":{"id":492,"experimentId":488,"gradePhase":2,"subjectId":2,"versionId":1,"textbookId":8,"chapterId":49,"sectionId":207,"rank":35,"auto_update_at":"2022-11-07 15:58:04"}}],"_links":{"self":{"href":"https:\/\/console-v6.nobook.com\/v1\/resource\/index?per-page=30&dataVersion=huaxue_v3.4.0&page=1&gradePhase=2&versionId=1&subjectId=2"},"first":{"href":"https:\/\/console-v6.nobook.com\/v1\/resource\/index?per-page=30&dataVersion=huaxue_v3.4.0&page=1&gradePhase=2&versionId=1&subjectId=2"},"last":{"href":"https:\/\/console-v6.nobook.com\/v1\/resource\/index?per-page=30&dataVersion=huaxue_v3.4.0&page=5&gradePhase=2&versionId=1&subjectId=2"},"next":{"href":"https:\/\/console-v6.nobook.com\/v1\/resource\/index?per-page=30&dataVersion=huaxue_v3.4.0&page=2&gradePhase=2&versionId=1&subjectId=2"}},"_meta":{"totalCount":142,"pageCount":5,"currentPage":1,"perPage":30},"_extra":{"realTotalCount":139}}