{"code":200,"message":"OK","data":[{"id":468,"title":"\u94c1\u9489\u4e0e\u786b\u9178\u94dc\u6eb6\u6db2\u53cd\u5e94\u524d\u540e\u8d28\u91cf\u7684\u6d4b\u5b9a","category":9,"imgUrl":"https:\/\/imgcdn.nobook.com\/chem\/20210917\/7f537ca8812f5412ade7883deeb5901a.png","contents":"232fa45f6c1719c952d49f2ef6cf4605","keywords":"[\"tiedingyuliusuantongrongyefanyingqianhouzhiliangdeceding\",\"tdylstryfyqhzldcd\",\"\u94c1\u9489\u4e0e\u786b\u9178\u94dc\u6eb6\u6db2\u53cd\u5e94\u524d\u540e\u8d28\u91cf\u7684\u6d4b\u5b9a\"]","vip":0,"actionType":100,"chenmEquation":"Fe+CuSO4==FeSO4+Cu","sort":468,"knowledge_points_sort":110,"url":"","dataVersion":0,"subjectId":2,"gradePhase":2,"operate":{"id":648,"experiment_id":468,"hits_count":734,"play_count":0,"share_count":19,"likes_count":2,"created_at":1656234889,"updated_at":1668009307,"auto_update_at":"2022-11-09 23:55:07"},"tag":[],"operatelog":[],"relation":{"id":6703,"experimentId":468,"gradePhase":2,"subjectId":2,"versionId":1,"textbookId":7,"chapterId":45,"sectionId":177,"rank":73,"auto_update_at":"2022-11-07 15:58:04"}},{"id":467,"title":"\u767d\u78f7\u71c3\u70e7\u524d\u540e\u8d28\u91cf\u7684\u6d4b\u5b9a","category":9,"imgUrl":"https:\/\/imgcdn.nobook.com\/chem\/20210917\/62b9f0814b3104a58fdabcf9cbbc5210.png","contents":"1d3203d96981823d99205553642b7c33","keywords":"[\"bailinranshaoqianhouzhiliangdeceding\",\"blrsqhzldcd\",\"zhiliangshouheng\",\"zlsh\",\"\u767d\u78f7\u71c3\u70e7\u524d\u540e\u8d28\u91cf\u7684\u6d4b\u5b9a\",\"\u8d28\u91cf\u5b88\u6052\"]","vip":0,"actionType":100,"chenmEquation":"P4+5O2=\u70b9\u71c3=2P2O5","sort":467,"knowledge_points_sort":109,"url":"","dataVersion":0,"subjectId":2,"gradePhase":2,"operate":{"id":681,"experiment_id":467,"hits_count":1077,"play_count":0,"share_count":18,"likes_count":0,"created_at":1656284416,"updated_at":1667989076,"auto_update_at":"2022-11-09 18:17:56"},"tag":[],"operatelog":[],"relation":{"id":6704,"experimentId":467,"gradePhase":2,"subjectId":2,"versionId":1,"textbookId":7,"chapterId":45,"sectionId":177,"rank":74,"auto_update_at":"2022-11-07 15:58:04"}},{"id":365,"title":"\u8f70\u51fb\u91d1\u7b94\u5b9e\u9a8c","category":9,"imgUrl":"https:\/\/imgcdn.nobook.com\/chem\/20210917\/e02bd3bd2f40b97433045108709bbdb6.png","contents":"d1e12c7646ebd2c31b86b4327869b34b","keywords":"[\"hongjijinboshiyan\",\"hjjbsy\",\"\u8f70\u51fb\u91d1\u7b94\u5b9e\u9a8c\"]","vip":0,"actionType":100,"chenmEquation":null,"sort":365,"knowledge_points_sort":81,"url":"","dataVersion":0,"subjectId":2,"gradePhase":0,"operate":{"id":37,"experiment_id":365,"hits_count":3227,"play_count":0,"share_count":28,"likes_count":2,"created_at":1655273325,"updated_at":1667996308,"auto_update_at":"2022-11-09 20:18:28"},"tag":[{"id":2,"name":"hot","colour":"#E7F216"}],"operatelog":[],"relation":{"id":7421,"experimentId":365,"gradePhase":2,"subjectId":2,"versionId":1,"textbookId":7,"chapterId":43,"sectionId":170,"rank":75,"auto_update_at":"2022-11-07 15:58:04"}},{"id":374,"title":"\u77f3\u7070\u77f3\u4e0e\u76d0\u9178\u7684\u53cd\u5e94","category":9,"imgUrl":"https:\/\/imgcdn.nobook.com\/chem\/20210917\/eecbd99975a128a75fc23c3a9ef77267.png","contents":"52e8b22fcb9367af8c281395e643f645","keywords":"[\"shihuishiyuyansuandefanying\",\"shsyysdfy\",\"\u77f3\u7070\u77f3\u4e0e\u76d0\u9178\u7684\u53cd\u5e94\"]","vip":0,"actionType":100,"chenmEquation":"CaCO3+2HCl==CaCl2+H2O+CO2_g","sort":374,"knowledge_points_sort":73,"url":"","dataVersion":0,"subjectId":2,"gradePhase":2,"operate":{"id":535,"experiment_id":374,"hits_count":598,"play_count":0,"share_count":11,"likes_count":0,"created_at":1655973939,"updated_at":1668001725,"auto_update_at":"2022-11-09 21:48:45"},"tag":[],"operatelog":[],"relation":{"id":6709,"experimentId":374,"gradePhase":2,"subjectId":2,"versionId":1,"textbookId":7,"chapterId":46,"sectionId":181,"rank":76,"auto_update_at":"2022-11-07 15:58:04"}},{"id":482,"title":"\u7532\u70f7\u71c3\u70e7","category":9,"imgUrl":"https:\/\/imgcdn.nobook.com\/chem\/20210917\/12787f58a425961666aa814bfb6a20f9.png","contents":"dc2144536421906f0cf933899f82f066","keywords":"[\"jiawanranshao\",\"jwrs\",\"\u7532\u70f7\u71c3\u70e7\"]","vip":0,"actionType":100,"chenmEquation":"CH4+2O2=\u70b9\u71c3=CO2+2H2O","sort":482,"knowledge_points_sort":119,"url":"","dataVersion":0,"subjectId":2,"gradePhase":2,"operate":{"id":472,"experiment_id":482,"hits_count":743,"play_count":0,"share_count":4,"likes_count":1,"created_at":1655961165,"updated_at":1667976978,"auto_update_at":"2022-11-09 14:56:18"},"tag":[],"operatelog":[],"relation":{"id":6714,"experimentId":482,"gradePhase":2,"subjectId":2,"versionId":1,"textbookId":7,"chapterId":47,"sectionId":185,"rank":77,"auto_update_at":"2022-11-07 15:58:04"}},{"id":479,"title":"\u9541\u4e0e\u76d0\u9178\u53cd\u5e94","category":9,"imgUrl":"https:\/\/imgcdn.nobook.com\/chem\/20210917\/0816ef78351c1592390e47bca7261967.png","contents":"71066ae00c9d9a03300b69a6e81880db","keywords":"[\"meiyuyansuanfanying\",\"myysfy\",\"fangre\",\"fr\",\"\u9541\u4e0e\u76d0\u9178\u53cd\u5e94\",\"\u653e\u70ed\"]","vip":0,"actionType":100,"chenmEquation":"Mg+2HCl==MgCl2+H2_g","sort":479,"knowledge_points_sort":118,"url":"","dataVersion":0,"subjectId":2,"gradePhase":2,"operate":{"id":429,"experiment_id":479,"hits_count":328,"play_count":0,"share_count":4,"likes_count":0,"created_at":1655898450,"updated_at":1667897301,"auto_update_at":"2022-11-08 16:48:21"},"tag":[],"operatelog":[],"relation":{"id":6716,"experimentId":479,"gradePhase":2,"subjectId":2,"versionId":1,"textbookId":7,"chapterId":47,"sectionId":185,"rank":78,"auto_update_at":"2022-11-07 15:58:04"}},{"id":478,"title":"\u5b9e\u9a8c\u5ba4\u5236\u53d6\u6c22\u6c14\u4e4b\u5411\u4e0b\u6392\u7a7a\u6c14\u6cd5","category":9,"imgUrl":"https:\/\/imgcdn.nobook.com\/chem\/20210917\/079220562425ef1d32f024b17ff50702.png","contents":"1aea7bf2c8542ff7dcb03f9ffbed6936","keywords":"[\"shiyanshizhiquqingqizhixiangxiapaikongqifa\",\"syszqqqzxxpkqf\",\"zhiquqiti\",\"zqqt\",\"\u5b9e\u9a8c\u5ba4\u5236\u53d6\u6c22\u6c14\u4e4b\u5411\u4e0b\u6392\u7a7a\u6c14\u6cd5\",\"\u5236\u53d6\u6c14\u4f53\"]","vip":0,"actionType":100,"chenmEquation":"Zn+H2SO4==ZnSO4+H2_g","sort":478,"knowledge_points_sort":117,"url":"","dataVersion":0,"subjectId":2,"gradePhase":2,"operate":{"id":646,"experiment_id":478,"hits_count":355,"play_count":0,"share_count":5,"likes_count":1,"created_at":1656232469,"updated_at":1667986436,"auto_update_at":"2022-11-09 17:33:56"},"tag":[],"operatelog":[],"relation":{"id":6717,"experimentId":478,"gradePhase":2,"subjectId":2,"versionId":1,"textbookId":7,"chapterId":47,"sectionId":185,"rank":79,"auto_update_at":"2022-11-07 15:58:04"}},{"id":355,"title":"\u6728\u70ad\u5206\u522b\u5728\u7a7a\u6c14\u548c\u6c27\u6c14\u91cc\u71c3\u70e7","category":9,"imgUrl":"https:\/\/imgcdn.nobook.com\/chem\/20210917\/835d0b6403d551ef39c7fc60d8393571.png","contents":"5c2c6ed089f019627735c4cca39870f6","keywords":"[\"mutanfenbiezaikongqiheyangqiliranshao\",\"mtfbzkqhyqlrs\",\"\u6728\u70ad\u5206\u522b\u5728\u7a7a\u6c14\u548c\u6c27\u6c14\u91cc\u71c3\u70e7\",null]","vip":0,"actionType":100,"chenmEquation":"C+O2=\u70b9\u71c3=CO2","sort":355,"knowledge_points_sort":21,"url":"","dataVersion":0,"subjectId":2,"gradePhase":2,"operate":{"id":34,"experiment_id":355,"hits_count":2712,"play_count":0,"share_count":40,"likes_count":3,"created_at":1655273075,"updated_at":1668002293,"auto_update_at":"2022-11-09 21:58:13"},"tag":[{"id":2,"name":"hot","colour":"#E7F216"}],"operatelog":[],"relation":{"id":10160,"experimentId":355,"gradePhase":2,"subjectId":2,"versionId":1,"textbookId":7,"chapterId":42,"sectionId":167,"rank":80,"auto_update_at":"2022-11-07 15:58:04"}},{"id":354,"title":"\u9152\u7cbe\u706f\u7684\u706b\u7130","category":9,"imgUrl":"https:\/\/imgcdn.nobook.com\/chem\/20210917\/5f863055ae5d9371ea281c9142ccca23.png","contents":"93a055cc977b1169ee2873ecbd6754ce","keywords":"[\"jiujingdengdehuoyan\",\"jjddhy\",\"\u9152\u7cbe\u706f\u7684\u706b\u7130\",null]","vip":0,"actionType":100,"chenmEquation":null,"sort":354,"knowledge_points_sort":2,"url":"","dataVersion":0,"subjectId":2,"gradePhase":2,"operate":{"id":8,"experiment_id":354,"hits_count":9079,"play_count":0,"share_count":43,"likes_count":4,"created_at":1654853540,"updated_at":1668001318,"auto_update_at":"2022-11-09 21:41:58"},"tag":[{"id":2,"name":"hot","colour":"#E7F216"}],"operatelog":[],"relation":{"id":8162,"experimentId":354,"gradePhase":2,"subjectId":2,"versionId":1,"textbookId":7,"chapterId":41,"sectionId":165,"rank":81,"auto_update_at":"2022-11-07 15:56:53"}},{"id":471,"title":"\u5b9e\u9a8c\u5ba4\u5236\u53d6\u4e8c\u6c27\u5316\u78b3","category":9,"imgUrl":"https:\/\/imgcdn.nobook.com\/chem\/20210917\/39db0a0d88eca77544154712c9b8ad23.png","contents":"57ef8cd2eeea9fc9a7dfd0e5419af40f","keywords":"[\"shiyanshizhiqueryanghuatan\",\"syszqeyht\",\"\u5b9e\u9a8c\u5ba4\u5236\u53d6\u4e8c\u6c27\u5316\u78b3\"]","vip":0,"actionType":100,"chenmEquation":"CaCO3+2HCl==CaCl2+H2O+CO2_g\nCa(OH)2+CO2==CaCO3_s+H2O","sort":471,"knowledge_points_sort":79,"url":"","dataVersion":0,"subjectId":2,"gradePhase":2,"operate":{"id":640,"experiment_id":471,"hits_count":514,"play_count":0,"share_count":10,"likes_count":0,"created_at":1656228111,"updated_at":1667996999,"auto_update_at":"2022-11-09 20:29:59"},"tag":[],"operatelog":[],"relation":{"id":6836,"experimentId":471,"gradePhase":2,"subjectId":2,"versionId":1,"textbookId":7,"chapterId":46,"sectionId":183,"rank":82,"auto_update_at":"2022-11-07 15:48:41"}},{"id":487,"title":"\u94c1\u94dc\u94f6\u91d1\u5c5e\u6d3b\u52a8\u6027\u63a2\u7a76\u5b9e\u9a8c","category":9,"imgUrl":"https:\/\/imgcdn.nobook.com\/chem\/20210917\/90bc746bf79009087007299290916d27.png","contents":"df036ca2c26b9ea885c91806eaff504c","keywords":"[\"tietongyinjinshuhuodongxingtanjiushiyan\",\"ttyjshdxtjsy\",\"\u94c1\u94dc\u94f6\u91d1\u5c5e\u6d3b\u52a8\u6027\u63a2\u7a76\u5b9e\u9a8c\"]","vip":0,"actionType":100,"chenmEquation":"Fe+CuSO4==FeSO4+Cu\nCu+2AgNO3==Cu(NO3)2+2Ag\nFe+2AgNO3==Fe(NO3)2+2Ag","sort":487,"knowledge_points_sort":18,"url":"","dataVersion":0,"subjectId":2,"gradePhase":2,"operate":{"id":40,"experiment_id":487,"hits_count":520,"play_count":0,"share_count":13,"likes_count":1,"created_at":1655273361,"updated_at":1667996110,"auto_update_at":"2022-11-09 20:15:10"},"tag":[],"operatelog":[],"relation":{"id":6837,"experimentId":487,"gradePhase":2,"subjectId":2,"versionId":1,"textbookId":8,"chapterId":48,"sectionId":188,"rank":83,"auto_update_at":"2022-11-07 15:48:41"}},{"id":492,"title":"\u4e00\u5b9a\u6eb6\u8d28\u8d28\u91cf\u5206\u6570\u7684\u6c2f\u5316\u94a0\u6eb6\u6db2\u7684\u914d\u5236","category":9,"imgUrl":"https:\/\/imgcdn.nobook.com\/chem\/20210917\/5f142368892ea53c3b054dd71b78ecba.png","contents":"4b55831d5a004999ffd754c9c44b80a4","keywords":"[\"yidingrongzhizhiliangfenshudelvhuanarongyedepeizhi\",\"ydrzzlfsdlhnrydpz\",\"\u4e00\u5b9a\u6eb6\u8d28\u8d28\u91cf\u5206\u6570\u7684\u6c2f\u5316\u94a0\u6eb6\u6db2\u7684\u914d\u5236\"]","vip":0,"actionType":100,"chenmEquation":null,"sort":492,"knowledge_points_sort":42,"url":"","dataVersion":0,"subjectId":2,"gradePhase":2,"operate":{"id":1213,"experiment_id":492,"hits_count":263,"play_count":0,"share_count":11,"likes_count":0,"created_at":1657626734,"updated_at":1667813827,"auto_update_at":"2022-11-07 17:37:07"},"tag":[],"operatelog":[],"relation":{"id":7008,"experimentId":492,"gradePhase":2,"subjectId":2,"versionId":1,"textbookId":8,"chapterId":49,"sectionId":2564,"rank":91,"auto_update_at":"2022-11-07 15:48:41"}},{"id":481,"title":"\u5b9e\u9a8c\u5ba4\u5236\u53d6\u6c22\u6c14\u4e4b\u6392\u6c34\u6cd5","category":9,"imgUrl":"https:\/\/imgcdn.nobook.com\/chem\/20210917\/201908295d6779831fdcc.png","contents":"0e2d3d9c869a6e4189e191a390bddef6","keywords":"[\"shiyanshizhiquqingqizhipaishuifa\",\"syszqqqzpsf\",\"\u5b9e\u9a8c\u5ba4\u5236\u53d6\u6c22\u6c14\u4e4b\u6392\u6c34\u6cd5\"]","vip":0,"actionType":100,"chenmEquation":"Zn+H2SO4==ZnSO4+H2_g","sort":481,"knowledge_points_sort":14,"url":"","dataVersion":0,"subjectId":2,"gradePhase":2,"operate":{"id":43,"experiment_id":481,"hits_count":590,"play_count":0,"share_count":6,"likes_count":0,"created_at":1655273374,"updated_at":1667976259,"auto_update_at":"2022-11-09 14:44:19"},"tag":[],"operatelog":[],"relation":{"id":7081,"experimentId":481,"gradePhase":2,"subjectId":2,"versionId":1,"textbookId":7,"chapterId":47,"sectionId":185,"rank":92,"auto_update_at":"2022-11-07 15:48:41"}},{"id":377,"title":"\u751f\u77f3\u7070\u4e0e\u6c34\u7684\u53cd\u5e94","category":9,"imgUrl":"https:\/\/imgcdn.nobook.com\/chem\/20210917\/3011283ac79ca311aab0774670587b19.png","contents":"487f27cd16690699558f7e78ca75f295","keywords":"[\"shengshihuiyushuidefanying\",\"sshysdfy\",\"\u751f\u77f3\u7070\u4e0e\u6c34\u7684\u53cd\u5e94\"]","vip":0,"actionType":100,"chenmEquation":"CaO+H2O==Ca(OH)2","sort":377,"knowledge_points_sort":108,"url":"","dataVersion":0,"subjectId":2,"gradePhase":2,"operate":{"id":837,"experiment_id":377,"hits_count":361,"play_count":23,"share_count":27,"likes_count":0,"created_at":1656502889,"updated_at":1667889271,"auto_update_at":"2022-11-08 14:34:31"},"tag":[],"operatelog":[],"relation":{"id":7418,"experimentId":377,"gradePhase":2,"subjectId":2,"versionId":1,"textbookId":7,"chapterId":47,"sectionId":185,"rank":95,"auto_update_at":"2022-11-07 15:48:41"}},{"id":457,"title":"\u6c27\u6c14\u53ef\u4ee5\u4f7f\u5e26\u6709\u706b\u661f\u7684\u6728\u6761\u590d\u71c3","category":9,"imgUrl":"https:\/\/imgcdn.nobook.com\/chem\/20210917\/81115d3f574fe84533423700ce5b8def.png","contents":"5b8346c76322c1994d5d5793e386cb49","keywords":"[\"yangqikeyishidaiyouhuoxingdemutiaofuran\",\"yqkysdyhxdmtfr\",\"yangqidejianyan\",\"yqdjy\",\"\u6c27\u6c14\u53ef\u4ee5\u4f7f\u5e26\u6709\u706b\u661f\u7684\u6728\u6761\u590d\u71c3\",\"\u6c27\u6c14\u7684\u68c0\u9a8c\",null]","vip":0,"actionType":100,"chenmEquation":null,"sort":457,"knowledge_points_sort":26,"url":"","dataVersion":0,"subjectId":2,"gradePhase":2,"operate":{"id":216,"experiment_id":457,"hits_count":2869,"play_count":0,"share_count":13,"likes_count":0,"created_at":1655825580,"updated_at":1668008714,"auto_update_at":"2022-11-09 23:45:14"},"tag":[],"operatelog":[],"relation":{"id":8165,"experimentId":457,"gradePhase":2,"subjectId":2,"versionId":1,"textbookId":7,"chapterId":42,"sectionId":169,"rank":97,"auto_update_at":"2022-11-07 15:48:41"}},{"id":469,"title":"\u9541\u6761\u71c3\u70e7","category":9,"imgUrl":"https:\/\/imgcdn.nobook.com\/chem\/20210917\/96e67ee4ef1cfcfd5e0631dcf5f0652d.png","contents":"18f0096c7c787fefcdf5240475c016fc","keywords":"[\"meitiaoranshao\",\"mtrs\",\"zhiliangshouheng\",\"zlsh\",\"\u9541\u6761\u71c3\u70e7\",\"\u8d28\u91cf\u5b88\u6052\",null]","vip":0,"actionType":100,"chenmEquation":"2Mg+O2=\u70b9\u71c3=2MgO","sort":469,"knowledge_points_sort":111,"url":"","dataVersion":0,"subjectId":2,"gradePhase":2,"operate":{"id":512,"experiment_id":469,"hits_count":4284,"play_count":0,"share_count":26,"likes_count":3,"created_at":1655968183,"updated_at":1668010291,"auto_update_at":"2022-11-10 00:11:31"},"tag":[],"operatelog":[],"relation":{"id":8168,"experimentId":469,"gradePhase":2,"subjectId":2,"versionId":1,"textbookId":7,"chapterId":45,"sectionId":177,"rank":98,"auto_update_at":"2022-11-07 15:48:41"}},{"id":493,"title":"\u8517\u7cd6\u6eb6\u89e3","category":9,"imgUrl":"https:\/\/imgcdn.nobook.com\/chem\/20210917\/6f65a5d409d2cbaa91ef472c7ed3af51.png","contents":"31e74124bf9e454435fec57280b4d6f2","keywords":"[\"zhetangrongjie\",\"ztrj\",\"\u8517\u7cd6\u6eb6\u89e3\",null]","vip":0,"actionType":100,"chenmEquation":null,"sort":493,"knowledge_points_sort":36,"url":"","dataVersion":0,"subjectId":2,"gradePhase":2,"operate":{"id":453,"experiment_id":493,"hits_count":1659,"play_count":0,"share_count":6,"likes_count":1,"created_at":1655944487,"updated_at":1668002790,"auto_update_at":"2022-11-09 22:06:31"},"tag":[],"operatelog":[],"relation":{"id":8170,"experimentId":493,"gradePhase":2,"subjectId":2,"versionId":1,"textbookId":8,"chapterId":49,"sectionId":207,"rank":99,"auto_update_at":"2022-11-07 15:48:41"}},{"id":380,"title":"\u6d53\u76d0\u9178\u548c\u6d53\u786b\u9178\u7684\u7269\u7406\u6027\u8d28","category":9,"imgUrl":"https:\/\/imgcdn.nobook.com\/chem\/20210917\/73213a2f90f9b66988fc47abcf288664.png","contents":"f0ef9ba2e8894351d019801911ab9a92","keywords":"[\"nongyansuanhenongliusuandewulixingzhi\",\"nyshnlsdwlxz\",\"\u6d53\u76d0\u9178\u548c\u6d53\u786b\u9178\u7684\u7269\u7406\u6027\u8d28\",null]","vip":0,"actionType":100,"chenmEquation":null,"sort":380,"knowledge_points_sort":52,"url":"","dataVersion":0,"subjectId":2,"gradePhase":2,"operate":{"id":86,"experiment_id":380,"hits_count":1546,"play_count":0,"share_count":6,"likes_count":2,"created_at":1655367600,"updated_at":1668000933,"auto_update_at":"2022-11-09 21:35:33"},"tag":[],"operatelog":[],"relation":{"id":8171,"experimentId":380,"gradePhase":2,"subjectId":2,"versionId":1,"textbookId":8,"chapterId":50,"sectionId":195,"rank":101,"auto_update_at":"2022-11-07 15:48:41"}},{"id":385,"title":"\u78b3\u9178\u94a0\u4e0e\u6f84\u6e05\u77f3\u7070\u6c34\u53cd\u5e94","category":9,"imgUrl":"https:\/\/imgcdn.nobook.com\/chem\/20210917\/bc252fd3e701ef69d2c3f69bb9b01ded.png","contents":"6c11bb5f716d04580ee28a9a49a10d43","keywords":"[\"tansuannayuchengqingshihuishuifanying\",\"tsnycqshsfy\",\"\u78b3\u9178\u94a0\u4e0e\u6f84\u6e05\u77f3\u7070\u6c34\u53cd\u5e94\",null]","vip":0,"actionType":100,"chenmEquation":"Na2CO3+Ca(OH)2==2NaOH+CaCO3_s","sort":385,"knowledge_points_sort":63,"url":"","dataVersion":0,"subjectId":2,"gradePhase":2,"operate":{"id":580,"experiment_id":385,"hits_count":2013,"play_count":0,"share_count":8,"likes_count":2,"created_at":1656054166,"updated_at":1668008924,"auto_update_at":"2022-11-09 23:48:44"},"tag":[],"operatelog":[],"relation":{"id":8173,"experimentId":385,"gradePhase":2,"subjectId":2,"versionId":1,"textbookId":8,"chapterId":51,"sectionId":211,"rank":102,"auto_update_at":"2022-11-07 15:48:41"}},{"id":454,"title":"\u94c1\u4e1d\u5728\u6c27\u6c14\u91cc\u71c3\u70e7","category":9,"imgUrl":"https:\/\/imgcdn.nobook.com\/chem\/20210917\/22a4f76dd8bfd5c72344ee76b410f73f.png","contents":"428856e82364d705a8acb2bf4d34c42e","keywords":"[\"tiesizaiyangqiliranshao\",\"tszyqlrs\",\"\u94c1\u4e1d\u5728\u6c27\u6c14\u91cc\u71c3\u70e7\",\"\",null]","vip":0,"actionType":100,"chenmEquation":"3Fe+2O2=\u70b9\u71c3=Fe3O4","sort":454,"knowledge_points_sort":22,"url":"","dataVersion":0,"subjectId":2,"gradePhase":2,"operate":{"id":35,"experiment_id":454,"hits_count":21377,"play_count":0,"share_count":81,"likes_count":8,"created_at":1655273080,"updated_at":1668009310,"auto_update_at":"2022-11-09 23:55:10"},"tag":[{"id":2,"name":"hot","colour":"#E7F216"}],"operatelog":[],"relation":{"id":10159,"experimentId":454,"gradePhase":2,"subjectId":2,"versionId":1,"textbookId":7,"chapterId":42,"sectionId":169,"rank":103,"auto_update_at":"2022-11-07 15:48:41"}},{"id":355,"title":"\u6728\u70ad\u5206\u522b\u5728\u7a7a\u6c14\u548c\u6c27\u6c14\u91cc\u71c3\u70e7","category":9,"imgUrl":"https:\/\/imgcdn.nobook.com\/chem\/20210917\/835d0b6403d551ef39c7fc60d8393571.png","contents":"5c2c6ed089f019627735c4cca39870f6","keywords":"[\"mutanfenbiezaikongqiheyangqiliranshao\",\"mtfbzkqhyqlrs\",\"\u6728\u70ad\u5206\u522b\u5728\u7a7a\u6c14\u548c\u6c27\u6c14\u91cc\u71c3\u70e7\",null]","vip":0,"actionType":100,"chenmEquation":"C+O2=\u70b9\u71c3=CO2","sort":355,"knowledge_points_sort":21,"url":"","dataVersion":0,"subjectId":2,"gradePhase":2,"operate":{"id":34,"experiment_id":355,"hits_count":2712,"play_count":0,"share_count":40,"likes_count":3,"created_at":1655273075,"updated_at":1668002293,"auto_update_at":"2022-11-09 21:58:13"},"tag":[{"id":2,"name":"hot","colour":"#E7F216"}],"operatelog":[],"relation":{"id":10161,"experimentId":355,"gradePhase":2,"subjectId":2,"versionId":1,"textbookId":7,"chapterId":42,"sectionId":169,"rank":104,"auto_update_at":"2022-11-07 15:48:41"}},{"id":480,"title":"\u71c3\u70e7\u7684\u6761\u4ef6","category":9,"imgUrl":"https:\/\/imgcdn.nobook.com\/chem\/20210917\/0d2edabb8fce8071790826e399f4be44.png","contents":"6352b4b4629aaf53faa64ca9eace8f2e","keywords":"[\"ranshaodetiaojian\",\"rsdtj\",\"ranshaotiaojiandeshiyan\",\"rstjdsy\",\"ranshaotiaojiandeshiyan1\",\"rstjdsy1\",\"\u71c3\u70e7\u7684\u6761\u4ef6\",\"\u71c3\u70e7\u6761\u4ef6\u7684\u5b9e\u9a8c\",\"\",\"\u71c3\u70e7\u6761\u4ef6\u7684\u5b9e\u9a8c1\",null]","vip":0,"actionType":100,"chenmEquation":null,"sort":480,"knowledge_points_sort":113,"url":"","dataVersion":0,"subjectId":2,"gradePhase":2,"operate":{"id":272,"experiment_id":480,"hits_count":773,"play_count":0,"share_count":32,"likes_count":0,"created_at":1655862645,"updated_at":1668003721,"auto_update_at":"2022-11-09 22:22:01"},"tag":[],"operatelog":[],"relation":{"id":10171,"experimentId":480,"gradePhase":2,"subjectId":2,"versionId":1,"textbookId":7,"chapterId":47,"sectionId":184,"rank":106,"auto_update_at":"2022-11-07 15:48:41"}},{"id":364,"title":"\u6728\u70ad\u8fd8\u539f\u6c27\u5316\u94c1","category":9,"imgUrl":"https:\/\/imgcdn.nobook.com\/chem\/20210917\/2021062260d19ee8a03d2.png","contents":"df5983ee0c8bc4f4b6612b30fca1d5f7","keywords":"[\"mutanhuaiyuanyanghuatie\",\"mthyyht\",\"\u6728\u70ad\u8fd8\u539f\u6c27\u5316\u94c1\",\"\",null]","vip":0,"actionType":100,"chenmEquation":"2Fe2O3+3C=\u9ad8\u6e29=4Fe+3CO2_g","sort":364,"knowledge_points_sort":67,"url":"","dataVersion":0,"subjectId":2,"gradePhase":2,"operate":{"id":583,"experiment_id":364,"hits_count":464,"play_count":0,"share_count":7,"likes_count":0,"created_at":1656064121,"updated_at":1667995820,"auto_update_at":"2022-11-09 20:10:20"},"tag":[],"operatelog":[],"relation":{"id":10194,"experimentId":364,"gradePhase":2,"subjectId":2,"versionId":1,"textbookId":7,"chapterId":46,"sectionId":180,"rank":107,"auto_update_at":"2022-11-07 15:48:41"}},{"id":2687,"title":"\u4e73\u5316\u73b0\u8c61","category":9,"imgUrl":"https:\/\/imgcdn.nobook.com\/chem\/20210917\/2021072060f6343768251.png","contents":"74252b8c4aed2980670c8199caecb006","keywords":"[\"ruhuaxianxiang\",\"rhxx\",\"\",\"\u4e73\u5316\u73b0\u8c61\",\"aa\"]","vip":0,"actionType":100,"chenmEquation":null,"sort":2687,"knowledge_points_sort":38,"url":"","dataVersion":0,"subjectId":2,"gradePhase":2,"operate":{"id":639,"experiment_id":2687,"hits_count":329,"play_count":0,"share_count":5,"likes_count":0,"created_at":1656219396,"updated_at":1667993054,"auto_update_at":"2022-11-09 19:24:14"},"tag":[],"operatelog":[],"relation":{"id":10209,"experimentId":2687,"gradePhase":2,"subjectId":2,"versionId":1,"textbookId":8,"chapterId":49,"sectionId":207,"rank":108,"auto_update_at":"2022-11-07 15:48:41"}},{"id":2686,"title":"\u91d1\u5c5e\u7684\u7269\u7406\u6027\u8d28\u548c\u67d0\u4e9b\u5316\u5b66\u6027\u8d28","category":9,"imgUrl":"https:\/\/imgcdn.nobook.com\/chem\/20210917\/2021062360d2d65552e6b.png","contents":"08b3307b0a6a62450dbbfbeb2254d61e","keywords":"[\"jinshudewulixingzhihemouxiehuaxuexingzhi\",\"jsdwlxzhmxhxxz\",\"\",\"\u91d1\u5c5e\u7684\u7269\u7406\u6027\u8d28\u548c\u67d0\u4e9b\u5316\u5b66\u6027\u8d28\",\"a\"]","vip":0,"actionType":100,"chenmEquation":null,"sort":2686,"knowledge_points_sort":47,"url":"","dataVersion":0,"subjectId":2,"gradePhase":2,"operate":{"id":579,"experiment_id":2686,"hits_count":405,"play_count":0,"share_count":7,"likes_count":1,"created_at":1656051286,"updated_at":1668006703,"auto_update_at":"2022-11-09 23:11:43"},"tag":[],"operatelog":[],"relation":{"id":10210,"experimentId":2686,"gradePhase":2,"subjectId":2,"versionId":1,"textbookId":8,"chapterId":48,"sectionId":190,"rank":109,"auto_update_at":"2022-11-07 15:48:41"}},{"id":2684,"title":"\u91d1\u5c5e\u4e0e\u76d0\u9178\u3001\u7a00\u786b\u9178\u7684\u53cd\u5e94","category":9,"imgUrl":"https:\/\/imgcdn.nobook.com\/chem\/20210917\/2021062260d18d786965b.jpg","contents":"e8a1fdf6ad393ed16f87452d4a30fc8f","keywords":"[\"jinshuyuyansuanxiliusuandefanying\",\"jsyysxlsdfy\",\"\",\"\u91d1\u5c5e\u4e0e\u76d0\u9178\u3001\u7a00\u786b\u9178\u7684\u53cd\u5e94\",\"aa\"]","vip":0,"actionType":100,"chenmEquation":null,"sort":2684,"knowledge_points_sort":44,"url":"","dataVersion":0,"subjectId":2,"gradePhase":2,"operate":{"id":247,"experiment_id":2684,"hits_count":722,"play_count":0,"share_count":8,"likes_count":0,"created_at":1655860083,"updated_at":1667996703,"auto_update_at":"2022-11-09 20:25:03"},"tag":[],"operatelog":[],"relation":{"id":10211,"experimentId":2684,"gradePhase":2,"subjectId":2,"versionId":1,"textbookId":8,"chapterId":48,"sectionId":188,"rank":110,"auto_update_at":"2022-11-07 15:48:41"}},{"id":2683,"title":"\u7c97\u76d0\u4e2d\u96be\u6eb6\u6027\u6742\u8d28\u7684\u53bb\u9664","category":9,"imgUrl":"https:\/\/imgcdn.nobook.com\/chem\/20210917\/2021062260d18db59ec6f.jpg","contents":"6dc36e26604f8b8750914817ce754065","keywords":"[\"cuyanzhongnanrongxingzazhidequchu\",\"cyznrxzzdqc\",\"cuyanzhongkerongxingzazhidequchu\",\"cyzkrxzzdqc\",\"\",\"\u7c97\u76d0\u4e2d\u96be\u6eb6\u6027\u6742\u8d28\u7684\u53bb\u9664\",\"salt\"]","vip":0,"actionType":100,"chenmEquation":null,"sort":2683,"knowledge_points_sort":80,"url":"","dataVersion":0,"subjectId":2,"gradePhase":2,"operate":{"id":316,"experiment_id":2683,"hits_count":515,"play_count":0,"share_count":7,"likes_count":0,"created_at":1655874575,"updated_at":1668006502,"auto_update_at":"2022-11-09 23:08:22"},"tag":[],"operatelog":[],"relation":{"id":10212,"experimentId":2683,"gradePhase":2,"subjectId":2,"versionId":1,"textbookId":8,"chapterId":51,"sectionId":213,"rank":111,"auto_update_at":"2022-11-07 15:48:41"}},{"id":2682,"title":"\u6c22\u6c27\u5316\u9499\u7684\u6027\u8d28","category":9,"imgUrl":"https:\/\/imgcdn.nobook.com\/chem\/20210917\/2021062260d18dd475540.jpg","contents":"b9d58fc3c4fc97b78745d7d0331323ec","keywords":"[\"qingyanghuagaidexingzhi\",\"qyhgdxz\",\"\",\"\u6c22\u6c27\u5316\u9499\u7684\u6027\u8d28\",\"calcium hydroxide\"]","vip":0,"actionType":100,"chenmEquation":null,"sort":2682,"knowledge_points_sort":56,"url":"","dataVersion":0,"subjectId":2,"gradePhase":2,"operate":{"id":469,"experiment_id":2682,"hits_count":150,"play_count":0,"share_count":3,"likes_count":0,"created_at":1655960455,"updated_at":1667854991,"auto_update_at":"2022-11-08 05:03:11"},"tag":[],"operatelog":[],"relation":{"id":10213,"experimentId":2682,"gradePhase":2,"subjectId":2,"versionId":1,"textbookId":8,"chapterId":50,"sectionId":195,"rank":112,"auto_update_at":"2022-11-07 15:48:41"}},{"id":2679,"title":"\u7a00\u76d0\u9178\u4e0e\u78b3\u9178\u94a0\u53cd\u5e94","category":9,"imgUrl":"https:\/\/imgcdn.nobook.com\/chem\/20210917\/2021052660ae0eeb02dda.jpg","contents":"89956039641ec92a781235de95f294b9","keywords":"[\"xiyansuanyutansuannafanying\",\"xysytsnfy\",\"\",\"\u7a00\u76d0\u9178\u4e0e\u78b3\u9178\u94a0\u53cd\u5e94\",\"HCl+Na2CO3\"]","vip":0,"actionType":100,"chenmEquation":null,"sort":2679,"knowledge_points_sort":106,"url":"","dataVersion":0,"subjectId":2,"gradePhase":2,"operate":{"id":443,"experiment_id":2679,"hits_count":453,"play_count":0,"share_count":11,"likes_count":0,"created_at":1655906997,"updated_at":1668001680,"auto_update_at":"2022-11-09 21:48:00"},"tag":[],"operatelog":[],"relation":{"id":10215,"experimentId":2679,"gradePhase":2,"subjectId":2,"versionId":1,"textbookId":7,"chapterId":41,"sectionId":165,"rank":113,"auto_update_at":"2022-11-07 15:48:41"}},{"id":2696,"title":"\u67d0\u4e9b\u9178\u78b1\u76d0\u4e4b\u95f4\u662f\u5426\u53d1\u751f\u53cd\u5e94","category":9,"imgUrl":"https:\/\/imgcdn.nobook.com\/chem\/20210917\/2021072060f6618271ddc.png","contents":"72aadfccbaccb2608ab308ff74b90285","keywords":"[\"mouxiesuanjianyanzhijianshifufashengfanying\",\"mxsjyzjsffsfy\",\"\",\"\u67d0\u4e9b\u9178\u78b1\u76d0\u4e4b\u95f4\u662f\u5426\u53d1\u751f\u53cd\u5e94\",\"aa\"]","vip":0,"actionType":100,"chenmEquation":null,"sort":2696,"knowledge_points_sort":66,"url":"","dataVersion":0,"subjectId":2,"gradePhase":2,"operate":{"id":711,"experiment_id":2696,"hits_count":126,"play_count":0,"share_count":6,"likes_count":1,"created_at":1656382699,"updated_at":1668015804,"auto_update_at":"2022-11-10 01:43:24"},"tag":[],"operatelog":[],"relation":{"id":10220,"experimentId":2696,"gradePhase":2,"subjectId":2,"versionId":1,"textbookId":8,"chapterId":51,"sectionId":211,"rank":114,"auto_update_at":"2022-11-07 15:48:41"}}],"_links":{"self":{"href":"https:\/\/console-v6.nobook.com\/v1\/resource\/index?per-page=30&dataVersion=huaxue_v3.4.0&page=3&gradePhase=2&versionId=1&subjectId=2"},"first":{"href":"https:\/\/console-v6.nobook.com\/v1\/resource\/index?per-page=30&dataVersion=huaxue_v3.4.0&page=1&gradePhase=2&versionId=1&subjectId=2"},"last":{"href":"https:\/\/console-v6.nobook.com\/v1\/resource\/index?per-page=30&dataVersion=huaxue_v3.4.0&page=5&gradePhase=2&versionId=1&subjectId=2"},"prev":{"href":"https:\/\/console-v6.nobook.com\/v1\/resource\/index?per-page=30&dataVersion=huaxue_v3.4.0&page=2&gradePhase=2&versionId=1&subjectId=2"},"next":{"href":"https:\/\/console-v6.nobook.com\/v1\/resource\/index?per-page=30&dataVersion=huaxue_v3.4.0&page=4&gradePhase=2&versionId=1&subjectId=2"}},"_meta":{"totalCount":142,"pageCount":5,"currentPage":3,"perPage":30},"_extra":{"realTotalCount":139}}