{"code":200,"message":"OK","data":[{"id":2341,"title":"\u6c22\uff08H\uff09","category":23,"imgUrl":"https:\/\/imgcdn.nobook.com\/img\/20220922\/20220922632c30314f554.png","contents":"atomCloud__H","keywords":"[\"qingH\",\"qH\",\"yuanzi\",\"yz\",\"\u6c22\uff08H\uff09\",\"\u539f\u5b50\",\"H\",\"\",null]","vip":0,"actionType":300,"chenmEquation":null,"sort":2341,"knowledge_points_sort":86,"url":null,"dataVersion":30300,"subjectId":2,"gradePhase":0,"operate":{"id":584,"experiment_id":2341,"hits_count":557,"play_count":0,"share_count":10,"likes_count":0,"created_at":1656065036,"updated_at":1667995846,"auto_update_at":"2022-11-09 20:10:46"},"tag":[],"operatelog":[],"relation":{"id":13928,"experimentId":2341,"gradePhase":2,"subjectId":2,"versionId":1,"textbookId":7,"chapterId":43,"sectionId":171,"rank":115,"auto_update_at":"2022-11-07 15:48:41"}},{"id":2409,"title":"\u4e59\u9187\uff08C\u2082H\u2085OH\uff09","category":23,"imgUrl":"https:\/\/imgcdn.nobook.com\/chem\/20210917\/201908305d68d8200980a.jpg","contents":"organic__C\u2082H\u2085OH","keywords":"[\"yichun\",\"yc\",\"yichunCHOH\",\"ycCHOH\",\"\u4e59\u9187\",\"C\u2082H\u2085OH\",\"\u4e59\u9187\uff08C\u2082H\u2085OH\uff09\",\"\",null]","vip":0,"actionType":300,"chenmEquation":null,"sort":2409,"knowledge_points_sort":121,"url":"","dataVersion":0,"subjectId":2,"gradePhase":0,"operate":{"id":496,"experiment_id":2409,"hits_count":288,"play_count":0,"share_count":10,"likes_count":0,"created_at":1655966367,"updated_at":1667995549,"auto_update_at":"2022-11-09 20:05:49"},"tag":[],"operatelog":[],"relation":{"id":10243,"experimentId":2409,"gradePhase":2,"subjectId":2,"versionId":1,"textbookId":7,"chapterId":47,"sectionId":185,"rank":116,"auto_update_at":"2022-11-07 15:48:41"}},{"id":2346,"title":"\u78b3\uff08C\uff09","category":23,"imgUrl":"https:\/\/imgcdn.nobook.com\/img\/20220922\/20220922632c308e87b92.png","contents":"atomCloud__C","keywords":"[\"tanC\",\"tC\",\"yuanzi\",\"yz\",\"\u78b3\uff08C\uff09\",\"\u539f\u5b50\",\"C\",\"\",null]","vip":0,"actionType":300,"chenmEquation":null,"sort":2346,"knowledge_points_sort":91,"url":null,"dataVersion":30300,"subjectId":2,"gradePhase":0,"operate":{"id":192,"experiment_id":2346,"hits_count":3006,"play_count":0,"share_count":39,"likes_count":0,"created_at":1655792291,"updated_at":1668009078,"auto_update_at":"2022-11-09 23:51:18"},"tag":[],"operatelog":[],"relation":{"id":13949,"experimentId":2346,"gradePhase":2,"subjectId":2,"versionId":1,"textbookId":7,"chapterId":43,"sectionId":171,"rank":117,"auto_update_at":"2022-11-07 15:48:41"}},{"id":2403,"title":"\u7532\u70f7\uff08CH\u2084\uff09","category":23,"imgUrl":"https:\/\/imgcdn.nobook.com\/chem\/20210917\/201908305d68d72ad1bef.jpg","contents":"organic__CH\u2084","keywords":"[\"jiawan\",\"jw\",\"jiawanCH\",\"jwCH\",\"\u7532\u70f7\",\"CH\u2084\",\"\",\"\u7532\u70f7\uff08CH\u2084\uff09\",null]","vip":0,"actionType":300,"chenmEquation":null,"sort":2403,"knowledge_points_sort":120,"url":"","dataVersion":0,"subjectId":2,"gradePhase":0,"operate":{"id":110,"experiment_id":2403,"hits_count":290,"play_count":0,"share_count":10,"likes_count":1,"created_at":1655454976,"updated_at":1667995875,"auto_update_at":"2022-11-09 20:11:15"},"tag":[],"operatelog":[],"relation":{"id":10262,"experimentId":2403,"gradePhase":2,"subjectId":2,"versionId":1,"textbookId":7,"chapterId":47,"sectionId":185,"rank":118,"auto_update_at":"2022-11-07 15:48:41"}},{"id":2931,"title":"\u77f3\u58a8\u70ef\u5206\u5b50","category":23,"imgUrl":"https:\/\/imgcdn.nobook.com\/img\/20220907\/20220907631867a731e83.png","contents":"organic__C","keywords":"[\"shimoxifenzi\",\"smxfz\",\"\",\"\u77f3\u58a8\u70ef\u5206\u5b50\"]","vip":0,"actionType":300,"chenmEquation":null,"sort":2931,"knowledge_points_sort":2931,"url":null,"dataVersion":30200,"subjectId":2,"gradePhase":0,"operate":{"id":1275,"experiment_id":2931,"hits_count":380,"play_count":0,"share_count":6,"likes_count":0,"created_at":1662606059,"updated_at":1667995942,"auto_update_at":"2022-11-09 20:12:22"},"tag":[],"operatelog":[],"relation":{"id":14089,"experimentId":2931,"gradePhase":2,"subjectId":2,"versionId":1,"textbookId":7,"chapterId":46,"sectionId":180,"rank":119,"auto_update_at":"2022-11-07 15:48:41"}},{"id":2347,"title":"\u6c2e\uff08N\uff09","category":23,"imgUrl":"https:\/\/imgcdn.nobook.com\/img\/20220922\/20220922632c309eee34d.png","contents":"atomCloud__N","keywords":"[\"danN\",\"dN\",\"yuanzi\",\"yz\",\"\u6c2e\uff08N\uff09\",\"\u539f\u5b50\",\"N\",\"\",null]","vip":0,"actionType":300,"chenmEquation":null,"sort":2347,"knowledge_points_sort":92,"url":null,"dataVersion":30300,"subjectId":2,"gradePhase":0,"operate":{"id":108,"experiment_id":2347,"hits_count":204,"play_count":0,"share_count":8,"likes_count":0,"created_at":1655453407,"updated_at":1667893883,"auto_update_at":"2022-11-08 15:51:23"},"tag":[],"operatelog":[],"relation":{"id":13954,"experimentId":2347,"gradePhase":2,"subjectId":2,"versionId":1,"textbookId":7,"chapterId":43,"sectionId":171,"rank":120,"auto_update_at":"2022-11-07 15:48:41"}},{"id":2348,"title":"\u6c27\uff08O\uff09","category":23,"imgUrl":"https:\/\/imgcdn.nobook.com\/img\/20220922\/20220922632c30b039ad2.png","contents":"atomCloud__O","keywords":"[\"yangO\",\"yO\",\"yuanzi\",\"yz\",\"\u6c27\uff08O\uff09\",\"\u539f\u5b50\",\"O\",\"\",null]","vip":0,"actionType":300,"chenmEquation":null,"sort":2348,"knowledge_points_sort":93,"url":null,"dataVersion":30300,"subjectId":2,"gradePhase":0,"operate":{"id":471,"experiment_id":2348,"hits_count":469,"play_count":0,"share_count":8,"likes_count":0,"created_at":1655960622,"updated_at":1667994673,"auto_update_at":"2022-11-09 19:51:13"},"tag":[],"operatelog":[],"relation":{"id":13959,"experimentId":2348,"gradePhase":2,"subjectId":2,"versionId":1,"textbookId":7,"chapterId":43,"sectionId":171,"rank":121,"auto_update_at":"2022-11-07 15:48:41"}},{"id":2122,"title":"\u77f3\u58a8","category":23,"imgUrl":"https:\/\/imgcdn.nobook.com\/chem\/20210917\/201904245cbfcaf5e08df.jpg","contents":"jingti__C_G","keywords":"[\"shimo\",\"sm\",\"C\",\"\u77f3\u58a8\",\"\",null]","vip":0,"actionType":300,"chenmEquation":null,"sort":2122,"knowledge_points_sort":72,"url":"","dataVersion":0,"subjectId":2,"gradePhase":0,"operate":{"id":218,"experiment_id":2122,"hits_count":333,"play_count":0,"share_count":12,"likes_count":0,"created_at":1655825629,"updated_at":1667995979,"auto_update_at":"2022-11-09 20:13:00"},"tag":[],"operatelog":[],"relation":{"id":10485,"experimentId":2122,"gradePhase":2,"subjectId":2,"versionId":1,"textbookId":7,"chapterId":46,"sectionId":180,"rank":122,"auto_update_at":"2022-11-07 15:48:41"}},{"id":2118,"title":"\u91d1\u521a\u77f3","category":23,"imgUrl":"https:\/\/imgcdn.nobook.com\/chem\/20210917\/201904245cbfca3d0314b.jpg","contents":"jingti__C_D","keywords":"[\"jingangshi\",\"jgs\",\"C\",\"\u91d1\u521a\u77f3\",\"\",null]","vip":0,"actionType":300,"chenmEquation":null,"sort":2118,"knowledge_points_sort":70,"url":"","dataVersion":0,"subjectId":2,"gradePhase":0,"operate":{"id":10,"experiment_id":2118,"hits_count":549,"play_count":0,"share_count":20,"likes_count":2,"created_at":1654871920,"updated_at":1667996025,"auto_update_at":"2022-11-09 20:13:45"},"tag":[],"operatelog":[],"relation":{"id":10499,"experimentId":2118,"gradePhase":2,"subjectId":2,"versionId":1,"textbookId":7,"chapterId":46,"sectionId":180,"rank":123,"auto_update_at":"2022-11-07 15:48:41"}},{"id":2697,"title":"\u660e\u77fe\u51c0\u6c34","category":9,"imgUrl":"https:\/\/imgcdn.nobook.com\/chem\/20210917\/2021081161134072a8c84.png","contents":"5fc76c609304d71d3bbd58759f7b14b1","keywords":"[\"mingfanjingshui\",\"mfjs\",\"\",\"\u660e\u77fe\u51c0\u6c34\",\"aa\"]","vip":0,"actionType":100,"chenmEquation":null,"sort":2697,"knowledge_points_sort":31,"url":"","dataVersion":0,"subjectId":2,"gradePhase":2,"operate":{"id":268,"experiment_id":2697,"hits_count":949,"play_count":0,"share_count":11,"likes_count":0,"created_at":1655862231,"updated_at":1668003442,"auto_update_at":"2022-11-09 22:17:22"},"tag":[],"operatelog":[],"relation":{"id":10541,"experimentId":2697,"gradePhase":2,"subjectId":2,"versionId":1,"textbookId":7,"chapterId":44,"sectionId":174,"rank":124,"auto_update_at":"2022-11-07 15:48:41"}},{"id":2689,"title":"\u6c22\u6c27\u5316\u94a0\u6eb6\u6db2\u4e2d\u6ef4\u52a0\u7a00\u76d0\u9178","category":9,"imgUrl":"https:\/\/imgcdn.nobook.com\/chem\/20210917\/20210811611340f2417e4.png","contents":"775664af6592f70d6629765c9c6ba7b7","keywords":"[\"qingyanghuanarongyezhongdijiaxiyansuan\",\"qyhnryzdjxys\",\"\",\"\u6c22\u6c27\u5316\u94a0\u6eb6\u6db2\u4e2d\u6ef4\u52a0\u7a00\u76d0\u9178\",\"aa\"]","vip":0,"actionType":100,"chenmEquation":null,"sort":2689,"knowledge_points_sort":58,"url":"","dataVersion":0,"subjectId":2,"gradePhase":2,"operate":{"id":414,"experiment_id":2689,"hits_count":238,"play_count":0,"share_count":7,"likes_count":0,"created_at":1655890425,"updated_at":1667854994,"auto_update_at":"2022-11-08 05:03:14"},"tag":[],"operatelog":[],"relation":{"id":10542,"experimentId":2689,"gradePhase":2,"subjectId":2,"versionId":1,"textbookId":8,"chapterId":50,"sectionId":196,"rank":125,"auto_update_at":"2022-11-07 15:48:41"}},{"id":2695,"title":"\u6c22\u6c27\u5316\u94a0\u6eb6\u6db2\u3001\u6c2f\u5316\u94a1\u6eb6\u6db2\u4e0e\u786b\u9178\u94dc\u6eb6\u6db2\u53cd\u5e94","category":9,"imgUrl":"https:\/\/imgcdn.nobook.com\/chem\/20210917\/2021081161134178cc397.png","contents":"d0f4f1f7ad9ff871a40cc4cfddc5bbd5","keywords":"[\"qingyanghuanarongyelvhuabeirongyeyuliusuantongrongyefanying\",\"qyhnrylhbryylstryfy\",\"\",\"\u6c22\u6c27\u5316\u94a0\u6eb6\u6db2\u3001\u6c2f\u5316\u94a1\u6eb6\u6db2\u4e0e\u786b\u9178\u94dc\u6eb6\u6db2\u53cd\u5e94\",\"aa\"]","vip":0,"actionType":100,"chenmEquation":null,"sort":2695,"knowledge_points_sort":65,"url":"","dataVersion":0,"subjectId":2,"gradePhase":2,"operate":{"id":853,"experiment_id":2695,"hits_count":106,"play_count":0,"share_count":4,"likes_count":0,"created_at":1656507464,"updated_at":1667907771,"auto_update_at":"2022-11-08 19:42:51"},"tag":[],"operatelog":[],"relation":{"id":10543,"experimentId":2695,"gradePhase":2,"subjectId":2,"versionId":1,"textbookId":8,"chapterId":51,"sectionId":211,"rank":126,"auto_update_at":"2022-11-07 15:48:41"}},{"id":2694,"title":"\u78b3\u9178\u94a0\u3001\u78b3\u9178\u6c22\u94a0\u4e0e\u76d0\u9178\u7684\u53cd\u5e94","category":9,"imgUrl":"https:\/\/imgcdn.nobook.com\/chem\/20210917\/202108116113422c6fdc3.png","contents":"338ad8f3439970dad7bfe1dca31c1a32","keywords":"[\"tansuannatansuanqingnayuyansuandefanying\",\"tsntsqnyysdfy\",\"\",\"\u78b3\u9178\u94a0\u3001\u78b3\u9178\u6c22\u94a0\u4e0e\u76d0\u9178\u7684\u53cd\u5e94\",\"aa\"]","vip":0,"actionType":100,"chenmEquation":null,"sort":2694,"knowledge_points_sort":64,"url":"","dataVersion":0,"subjectId":2,"gradePhase":2,"operate":{"id":899,"experiment_id":2694,"hits_count":116,"play_count":0,"share_count":5,"likes_count":0,"created_at":1656574165,"updated_at":1667907179,"auto_update_at":"2022-11-08 19:32:59"},"tag":[],"operatelog":[],"relation":{"id":10545,"experimentId":2694,"gradePhase":2,"subjectId":2,"versionId":1,"textbookId":8,"chapterId":51,"sectionId":211,"rank":127,"auto_update_at":"2022-11-07 15:48:41"}},{"id":2690,"title":"pH\u548c\u6eb6\u6db2\u7684\u9178\u78b1\u6027","category":9,"imgUrl":"https:\/\/imgcdn.nobook.com\/chem\/20210917\/2021081161138da85acb3.png","contents":"e5fb5e80b3d268c45f64052935a1fb40","keywords":"[\"pHherongyedesuanjianxing\",\"pHhrydsjx\",\"\",\"pH\u548c\u6eb6\u6db2\u7684\u9178\u78b1\u6027\",\"aa\"]","vip":0,"actionType":100,"chenmEquation":null,"sort":2690,"knowledge_points_sort":59,"url":"","dataVersion":0,"subjectId":2,"gradePhase":2,"operate":{"id":877,"experiment_id":2690,"hits_count":163,"play_count":0,"share_count":4,"likes_count":0,"created_at":1656558511,"updated_at":1667978008,"auto_update_at":"2022-11-09 15:13:28"},"tag":[],"operatelog":[],"relation":{"id":10548,"experimentId":2690,"gradePhase":2,"subjectId":2,"versionId":1,"textbookId":8,"chapterId":50,"sectionId":196,"rank":129,"auto_update_at":"2022-11-07 15:48:04"}},{"id":2688,"title":"\u9178\u7684\u5316\u5b66\u6027\u8d28","category":9,"imgUrl":"https:\/\/imgcdn.nobook.com\/chem\/20210917\/20210811611395d3e5596.png","contents":"c4ae250cfd0da8937d8ea9d412d3bea4","keywords":"[\"suandehuaxuexingzhi\",\"sdhxxz\",\"\",\"\u9178\u7684\u5316\u5b66\u6027\u8d28\",\"aa\"]","vip":0,"actionType":100,"chenmEquation":null,"sort":2688,"knowledge_points_sort":57,"url":"","dataVersion":0,"subjectId":2,"gradePhase":2,"operate":{"id":585,"experiment_id":2688,"hits_count":224,"play_count":0,"share_count":5,"likes_count":0,"created_at":1656065108,"updated_at":1667978032,"auto_update_at":"2022-11-09 15:13:52"},"tag":[],"operatelog":[],"relation":{"id":10550,"experimentId":2688,"gradePhase":2,"subjectId":2,"versionId":1,"textbookId":8,"chapterId":50,"sectionId":195,"rank":130,"auto_update_at":"2022-11-07 15:48:04"}},{"id":2692,"title":"\u9178\u3001\u78b1\u7684\u5316\u5b66\u6027\u8d28","category":9,"imgUrl":"https:\/\/imgcdn.nobook.com\/chem\/20210917\/2021081161139cd41af6a.png","contents":"12098bcc0e42d0d0e7bcbb0b99685154","keywords":"[\"suanjiandehuaxuexingzhi\",\"sjdhxxz\",\"\",\"\u9178\u3001\u78b1\u7684\u5316\u5b66\u6027\u8d28\",\"aa\"]","vip":0,"actionType":100,"chenmEquation":null,"sort":2692,"knowledge_points_sort":61,"url":"","dataVersion":0,"subjectId":2,"gradePhase":2,"operate":{"id":447,"experiment_id":2692,"hits_count":341,"play_count":0,"share_count":7,"likes_count":1,"created_at":1655908089,"updated_at":1667967526,"auto_update_at":"2022-11-09 12:18:46"},"tag":[],"operatelog":[],"relation":{"id":10551,"experimentId":2692,"gradePhase":2,"subjectId":2,"versionId":1,"textbookId":8,"chapterId":50,"sectionId":197,"rank":131,"auto_update_at":"2022-11-07 15:48:04"}},{"id":2693,"title":"\u6eb6\u6db2\u9178\u78b1\u6027\u7684\u68c0\u9a8c","category":9,"imgUrl":"https:\/\/imgcdn.nobook.com\/chem\/20210917\/2021081261150c1653027.png","contents":"b306b636bbd37f86459fbba8c65295da","keywords":"[\"rongyesuanjianxingdejianyan\",\"rysjxdjy\",\"\",\"\u6eb6\u6db2\u9178\u78b1\u6027\u7684\u68c0\u9a8c\",\"aa\"]","vip":0,"actionType":100,"chenmEquation":null,"sort":2693,"knowledge_points_sort":62,"url":"","dataVersion":0,"subjectId":2,"gradePhase":2,"operate":{"id":700,"experiment_id":2693,"hits_count":384,"play_count":0,"share_count":4,"likes_count":0,"created_at":1656322253,"updated_at":1667976196,"auto_update_at":"2022-11-09 14:43:16"},"tag":[],"operatelog":[],"relation":{"id":10552,"experimentId":2693,"gradePhase":2,"subjectId":2,"versionId":1,"textbookId":8,"chapterId":50,"sectionId":198,"rank":132,"auto_update_at":"2022-11-07 15:48:04"}},{"id":2691,"title":"\u6d4b\u5b9a\u751f\u6d3b\u4e2d\u4e00\u4e9b\u7269\u8d28\u7684\u9178\u78b1\u6027","category":9,"imgUrl":"https:\/\/imgcdn.nobook.com\/chem\/20210917\/2021081261152c9332f1b.png","contents":"3b9fd77e85013ca159b32cab05bb5e47","keywords":"[\"cedingshenghuozhongyixiewuzhidesuanjianxing\",\"cdshzyxwzdsjx\",\"\",\"\u6d4b\u5b9a\u751f\u6d3b\u4e2d\u4e00\u4e9b\u7269\u8d28\u7684\u9178\u78b1\u6027\",\"aa\"]","vip":0,"actionType":100,"chenmEquation":null,"sort":2691,"knowledge_points_sort":60,"url":"","dataVersion":0,"subjectId":2,"gradePhase":2,"operate":{"id":470,"experiment_id":2691,"hits_count":282,"play_count":0,"share_count":5,"likes_count":0,"created_at":1655960510,"updated_at":1667907810,"auto_update_at":"2022-11-08 19:43:30"},"tag":[],"operatelog":[],"relation":{"id":10553,"experimentId":2691,"gradePhase":2,"subjectId":2,"versionId":1,"textbookId":8,"chapterId":50,"sectionId":196,"rank":133,"auto_update_at":"2022-11-07 15:48:04"}},{"id":372,"title":"\u89c2\u5bdf\u6c27\u6c14\u548c\u4e8c\u6c27\u5316\u78b3\u7684\u6027\u8d28\u7684\u5b9e\u9a8c","category":9,"imgUrl":"https:\/\/imgcdn.nobook.com\/chem\/20210917\/8c8b7b16b6688278b9217475b255f551.png","contents":"a9403b703a2bc70c9ecff99af91ffc06","keywords":"[\"guanchayangqiheeryanghuatandexingzhideshiyan\",\"gcyqheyhtdxzdsy\",\"\u89c2\u5bdf\u6c27\u6c14\u548c\u4e8c\u6c27\u5316\u78b3\u7684\u6027\u8d28\u7684\u5b9e\u9a8c\",null]","vip":0,"actionType":100,"chenmEquation":null,"sort":372,"knowledge_points_sort":103,"url":"","dataVersion":0,"subjectId":2,"gradePhase":2,"operate":{"id":229,"experiment_id":372,"hits_count":1230,"play_count":0,"share_count":12,"likes_count":1,"created_at":1655830107,"updated_at":1668000679,"auto_update_at":"2022-11-09 21:31:19"},"tag":[],"operatelog":[],"relation":{"id":10592,"experimentId":372,"gradePhase":2,"subjectId":2,"versionId":1,"textbookId":7,"chapterId":41,"sectionId":163,"rank":134,"auto_update_at":"2022-11-07 15:48:04"}},{"id":2930,"title":"\u8db3\u7403\u70ef","category":23,"imgUrl":"https:\/\/imgcdn.nobook.com\/img\/20220907\/20220907631861d0067c9.jpg","contents":"organic__C\u2086\u2080","keywords":"[\"tan60fenzi\",\"t60fz\",\"zuqiuxi\",\"zqx\",\"\",\"\u78b360\u5206\u5b50\",\"tanliulingfenzi\",\"\u8db3\u7403\u70ef\"]","vip":0,"actionType":300,"chenmEquation":null,"sort":2930,"knowledge_points_sort":2930,"url":null,"dataVersion":30200,"subjectId":2,"gradePhase":0,"operate":{"id":1276,"experiment_id":2930,"hits_count":630,"play_count":0,"share_count":7,"likes_count":1,"created_at":1662606242,"updated_at":1667997662,"auto_update_at":"2022-11-09 20:41:02"},"tag":[],"operatelog":[],"relation":{"id":14978,"experimentId":2930,"gradePhase":2,"subjectId":2,"versionId":1,"textbookId":7,"chapterId":46,"sectionId":180,"rank":135,"auto_update_at":"2022-11-07 15:48:04"}},{"id":2372,"title":"\u4e8c\u6c27\u5316\u78b3\uff08CO\u2082\uff09","category":23,"imgUrl":"https:\/\/imgcdn.nobook.com\/chem\/20210917\/201907265d3a66435b82b.jpg","contents":"organic__CO\u2082","keywords":"[\"eryanghuatanCO\",\"eyhtCO\",\"fenzi\",\"fz\",\"\u4e8c\u6c27\u5316\u78b3\uff08CO\u2082\uff09\",\"\u5206\u5b50\",\"CO2\",\"\",\"aa\"]","vip":0,"actionType":300,"chenmEquation":null,"sort":2372,"knowledge_points_sort":78,"url":null,"dataVersion":20702,"subjectId":2,"gradePhase":0,"operate":{"id":415,"experiment_id":2372,"hits_count":554,"play_count":0,"share_count":9,"likes_count":0,"created_at":1655890718,"updated_at":1667996120,"auto_update_at":"2022-11-09 20:15:20"},"tag":[],"operatelog":[],"relation":{"id":12779,"experimentId":2372,"gradePhase":2,"subjectId":2,"versionId":1,"textbookId":7,"chapterId":46,"sectionId":182,"rank":140,"auto_update_at":"2022-11-07 15:47:18"}},{"id":2379,"title":"\u786b\u9178\u6839\u79bb\u5b50\uff08SO\u2084\u00b2\u207b\uff09","category":23,"imgUrl":"https:\/\/imgcdn.nobook.com\/chem\/20210917\/201907265d3a6ab587dc8.jpg","contents":"organic__SO\u2084\u00b2\u207b","keywords":"[\"liusuangenliziSO\",\"lsglzSO\",\"\u786b\u9178\u6839\u79bb\u5b50\uff08SO\u2084\u00b2\u207b\uff09\",\"SO42-\",\"SO4\",\"\",null]","vip":0,"actionType":300,"chenmEquation":null,"sort":2379,"knowledge_points_sort":98,"url":"","dataVersion":0,"subjectId":2,"gradePhase":0,"operate":{"id":107,"experiment_id":2379,"hits_count":252,"play_count":0,"share_count":7,"likes_count":0,"created_at":1655453386,"updated_at":1667996194,"auto_update_at":"2022-11-09 20:16:34"},"tag":[],"operatelog":[],"relation":{"id":10646,"experimentId":2379,"gradePhase":2,"subjectId":2,"versionId":1,"textbookId":8,"chapterId":51,"sectionId":211,"rank":141,"auto_update_at":"2022-11-07 15:47:18"}},{"id":2380,"title":"\u78f7\u9178\u6839\u79bb\u5b50\uff08PO\u2084\u00b3\u207b\uff09","category":23,"imgUrl":"https:\/\/imgcdn.nobook.com\/chem\/20210917\/201907265d3a6c2262003.jpg","contents":"organic__PO\u2084\u00b3\u207b","keywords":"[\"linsuangenliziPO\",\"lsglzPO\",\"\u78f7\u9178\u6839\u79bb\u5b50\uff08PO\u2084\u00b3\u207b\uff09\",\"PO43-\",\"PO4\",\"\",null]","vip":0,"actionType":300,"chenmEquation":null,"sort":2380,"knowledge_points_sort":99,"url":"","dataVersion":0,"subjectId":2,"gradePhase":0,"operate":{"id":1131,"experiment_id":2380,"hits_count":120,"play_count":0,"share_count":6,"likes_count":0,"created_at":1657074250,"updated_at":1667996226,"auto_update_at":"2022-11-09 20:17:06"},"tag":[],"operatelog":[],"relation":{"id":10651,"experimentId":2380,"gradePhase":2,"subjectId":2,"versionId":1,"textbookId":8,"chapterId":51,"sectionId":211,"rank":142,"auto_update_at":"2022-11-07 15:47:18"}},{"id":2381,"title":"\u4e9a\u786b\u9178\u6839\u79bb\u5b50\uff08SO\u2083\u00b2\u207b\uff09","category":23,"imgUrl":"https:\/\/imgcdn.nobook.com\/chem\/20210917\/201907265d3a6cd905b99.jpg","contents":"organic__SO\u2083\u00b2\u207b","keywords":"[\"yaliusuangenliziSO\",\"ylsglzSO\",\"\u4e9a\u786b\u9178\u6839\u79bb\u5b50\uff08SO\u2083\u00b2\u207b\uff09\",\"SO32-\",\"SO3\",\"\",null]","vip":0,"actionType":300,"chenmEquation":null,"sort":2381,"knowledge_points_sort":100,"url":"","dataVersion":0,"subjectId":2,"gradePhase":0,"operate":{"id":113,"experiment_id":2381,"hits_count":1454,"play_count":0,"share_count":11,"likes_count":1,"created_at":1655455516,"updated_at":1668000558,"auto_update_at":"2022-11-09 21:29:18"},"tag":[],"operatelog":[],"relation":{"id":10656,"experimentId":2381,"gradePhase":2,"subjectId":2,"versionId":1,"textbookId":8,"chapterId":51,"sectionId":211,"rank":143,"auto_update_at":"2022-11-07 15:47:18"}},{"id":2369,"title":"\u6c2f\u6c14\uff08Cl\u2082\uff09","category":23,"imgUrl":"https:\/\/imgcdn.nobook.com\/chem\/20210917\/201907265d3a65568a1db.jpg","contents":"organic__Cl\u2082","keywords":"[\"lvqiCl\",\"lqCl\",\"fenzi\",\"fz\",\"\u6c2f\u6c14\uff08Cl\u2082\uff09\",\"\u5206\u5b50\",\"Cl2\",\"\",null]","vip":0,"actionType":300,"chenmEquation":null,"sort":2369,"knowledge_points_sort":85,"url":"","dataVersion":0,"subjectId":2,"gradePhase":0,"operate":{"id":951,"experiment_id":2369,"hits_count":460,"play_count":0,"share_count":10,"likes_count":0,"created_at":1656657212,"updated_at":1668001883,"auto_update_at":"2022-11-09 21:51:23"},"tag":[],"operatelog":[],"relation":{"id":10661,"experimentId":2369,"gradePhase":2,"subjectId":2,"versionId":1,"textbookId":7,"chapterId":43,"sectionId":170,"rank":144,"auto_update_at":"2022-11-07 15:47:18"}},{"id":2370,"title":"\u6c2f\u5316\u6c22\uff08HCl\uff09","category":23,"imgUrl":"https:\/\/imgcdn.nobook.com\/chem\/20210917\/201907265d3a65a608850.jpg","contents":"organic__HCl","keywords":"[\"lvhuaqingHCl\",\"lhqHCl\",\"fenzi\",\"fz\",\"yuanzi\",\"yz\",\"\u6c2f\u5316\u6c22\uff08HCl\uff09\",\"\u5206\u5b50\",\"HCl\",\"\",null]","vip":0,"actionType":300,"chenmEquation":null,"sort":2370,"knowledge_points_sort":86,"url":"","dataVersion":0,"subjectId":2,"gradePhase":0,"operate":{"id":115,"experiment_id":2370,"hits_count":196,"play_count":0,"share_count":6,"likes_count":0,"created_at":1655455537,"updated_at":1668001939,"auto_update_at":"2022-11-09 21:52:19"},"tag":[],"operatelog":[],"relation":{"id":10666,"experimentId":2370,"gradePhase":2,"subjectId":2,"versionId":1,"textbookId":7,"chapterId":43,"sectionId":170,"rank":145,"auto_update_at":"2022-11-07 15:47:18"}},{"id":2371,"title":"\u6c2e\u6c14\uff08N\u2082\uff09","category":23,"imgUrl":"https:\/\/imgcdn.nobook.com\/chem\/20210917\/201907265d3a65f9d7c15.jpg","contents":"organic__N\u2082","keywords":"[\"danqiN\",\"dqN\",\"fenzi\",\"fz\",\"\u6c2e\u6c14\uff08N\u2082\uff09\",\"\u5206\u5b50\",\"N2\",\"\",null]","vip":0,"actionType":300,"chenmEquation":null,"sort":2371,"knowledge_points_sort":87,"url":"","dataVersion":0,"subjectId":2,"gradePhase":0,"operate":{"id":114,"experiment_id":2371,"hits_count":183,"play_count":0,"share_count":6,"likes_count":0,"created_at":1655455522,"updated_at":1667996397,"auto_update_at":"2022-11-09 20:19:57"},"tag":[],"operatelog":[],"relation":{"id":10671,"experimentId":2371,"gradePhase":2,"subjectId":2,"versionId":1,"textbookId":7,"chapterId":43,"sectionId":170,"rank":146,"auto_update_at":"2022-11-07 15:47:18"}},{"id":2373,"title":"\u6c34\uff08H\u2082O\uff09","category":23,"imgUrl":"https:\/\/imgcdn.nobook.com\/chem\/20210917\/201907265d3a6685e365d.jpg","contents":"organic__H\u2082O","keywords":"[\"shuiHO\",\"sHO\",\"fenzi\",\"fz\",\"\u6c34\uff08H\u2082O\uff09\",\"\u5206\u5b50\",\"H2O\",\"\",null]","vip":0,"actionType":300,"chenmEquation":null,"sort":2373,"knowledge_points_sort":88,"url":"","dataVersion":0,"subjectId":2,"gradePhase":0,"operate":{"id":249,"experiment_id":2373,"hits_count":2416,"play_count":0,"share_count":20,"likes_count":0,"created_at":1655860161,"updated_at":1668005680,"auto_update_at":"2022-11-09 22:54:40"},"tag":[],"operatelog":[],"relation":{"id":10676,"experimentId":2373,"gradePhase":2,"subjectId":2,"versionId":1,"textbookId":7,"chapterId":43,"sectionId":170,"rank":147,"auto_update_at":"2022-11-07 15:47:18"}},{"id":2374,"title":"\u6c27\u6c14\uff08O\u2082\uff09","category":23,"imgUrl":"https:\/\/imgcdn.nobook.com\/chem\/20210917\/201907265d3a671b86aa7.jpg","contents":"organic__O\u2082","keywords":"[\"yangqiO\",\"yqO\",\"fenzi\",\"fz\",\"\u6c27\u6c14\uff08O\u2082\uff09\",\"\u5206\u5b50\",\"O2\",\"\",null]","vip":0,"actionType":300,"chenmEquation":null,"sort":2374,"knowledge_points_sort":89,"url":"","dataVersion":0,"subjectId":2,"gradePhase":0,"operate":{"id":219,"experiment_id":2374,"hits_count":288,"play_count":0,"share_count":4,"likes_count":0,"created_at":1655825662,"updated_at":1667996458,"auto_update_at":"2022-11-09 20:20:58"},"tag":[],"operatelog":[],"relation":{"id":10681,"experimentId":2374,"gradePhase":2,"subjectId":2,"versionId":1,"textbookId":7,"chapterId":43,"sectionId":170,"rank":148,"auto_update_at":"2022-11-07 15:47:18"}},{"id":2375,"title":"\u6c28\u6c14\uff08NH\u2083\uff09","category":23,"imgUrl":"https:\/\/imgcdn.nobook.com\/chem\/20210917\/201907265d3a67abdc4d2.jpg","contents":"organic__NH\u2083","keywords":"[\"anqiNH\",\"aqNH\",\"fenzi\",\"fz\",\"\u6c28\u6c14\uff08NH\u2083\uff09\",\"\u5206\u5b50\",\"NH3\",\"\",null]","vip":0,"actionType":300,"chenmEquation":null,"sort":2375,"knowledge_points_sort":90,"url":"","dataVersion":0,"subjectId":2,"gradePhase":0,"operate":{"id":818,"experiment_id":2375,"hits_count":206,"play_count":0,"share_count":5,"likes_count":0,"created_at":1656497218,"updated_at":1667996483,"auto_update_at":"2022-11-09 20:21:23"},"tag":[],"operatelog":[],"relation":{"id":10686,"experimentId":2375,"gradePhase":2,"subjectId":2,"versionId":1,"textbookId":7,"chapterId":43,"sectionId":170,"rank":149,"auto_update_at":"2022-11-07 15:47:18"}}],"_links":{"self":{"href":"https:\/\/console-v6.nobook.com\/v1\/resource\/index?per-page=30&dataVersion=huaxue_v3.4.0&page=4&gradePhase=2&versionId=1&subjectId=2"},"first":{"href":"https:\/\/console-v6.nobook.com\/v1\/resource\/index?per-page=30&dataVersion=huaxue_v3.4.0&page=1&gradePhase=2&versionId=1&subjectId=2"},"last":{"href":"https:\/\/console-v6.nobook.com\/v1\/resource\/index?per-page=30&dataVersion=huaxue_v3.4.0&page=5&gradePhase=2&versionId=1&subjectId=2"},"prev":{"href":"https:\/\/console-v6.nobook.com\/v1\/resource\/index?per-page=30&dataVersion=huaxue_v3.4.0&page=3&gradePhase=2&versionId=1&subjectId=2"},"next":{"href":"https:\/\/console-v6.nobook.com\/v1\/resource\/index?per-page=30&dataVersion=huaxue_v3.4.0&page=5&gradePhase=2&versionId=1&subjectId=2"}},"_meta":{"totalCount":142,"pageCount":5,"currentPage":4,"perPage":30},"_extra":{"realTotalCount":139}}